"","V1","V2","V3"
"relaxedlag",1,1,0.4779
"sluggishlag",2,1,0.5476
"contentlag",9,1,0.2936
"relaxedlag.1",1,2,-0.8531
"sluggishlag.1",2,2,-0.2384
"nervouslag",5,2,-0.6035
"pleasedlag",3,3,0.1209
"unhappylag",4,3,0.342
"contentlag.1",9,3,0.4419
"unhappylag.1",4,4,0.0542
"unhappylag.2",4,5,0.4812
"nervouslag.1",5,5,-0.3151
"jitterylag",8,5,-0.5173
"upsetlag",6,6,-0.6966
"irritablelag",7,6,1.0578
"jitterylag.1",8,6,-0.4185
"irritablelag.1",7,7,-0.2494
"pleasedlag.1",3,8,-0.4235
"nervouslag.2",5,8,0.2863
"jitterylag.2",8,8,-0.1262
"contentlag.2",9,9,0.1313
"excitedlag",10,9,-0.2919
"upsetlag.1",6,10,-0.3297
"excitedlag.1",10,10,0.2073
"irritable",7,1,0.2674
"jittery",8,1,-0.4117
"excited",10,1,-0.3354
"excited.1",10,2,0.6174
"relaxed",1,3,0.2601
"excited.2",10,3,0.5667
"pleased",3,4,-0.4458
"nervous",5,4,0.6653
"relaxed.1",1,6,-0.4721
"sluggish",2,6,0.4352
"unhappy",4,6,-0.2986
"upset",6,7,0.7062
"sluggish.1",2,8,0.4234
"nervous.1",5,8,0.5263
"sluggish.2",2,9,-0.4479
"unhappy.1",4,9,-0.278
"irritable.1",7,9,0.4769
"sluggish.3",2,10,-0.9133
