"","V1","V2","V3"
"relaxedlag",1,1,-0.0488
"sluggishlag",2,2,-0.56
"pleasedlag",3,3,-0.0661
"excitedlag",10,3,-0.2177
"unhappylag",4,4,0.793
"nervouslag",5,4,-0.386
"irritablelag",7,4,-0.5526
"pleasedlag.1",3,5,0.3621
"nervouslag.1",5,5,-0.1024
"excitedlag.1",10,5,0.4095
"upsetlag",6,6,-0.2317
"irritablelag.1",7,7,-0.371
"contentlag",9,7,-0.6792
"pleasedlag.2",3,8,0.3831
"jitterylag",8,8,0.085
"irritablelag.2",7,9,-0.3542
"contentlag.1",9,9,-0.0385
"excitedlag.2",10,9,0.3897
"excitedlag.3",10,10,0.6402
"content",9,1,0.6685
"content.1",9,2,-0.7628
"unhappy",4,3,-0.4757
"content.2",9,3,0.5957
"nervous",5,4,0.6057
"sluggish",2,5,-0.4717
"pleased",3,5,0.4474
"unhappy.1",4,5,0.731
"upset",6,5,-0.4232
"irritable",7,5,0.8954
"jittery",8,5,-0.2941
"content.3",9,5,-0.8243
"excited",10,5,-0.2825
"sluggish.1",2,6,-0.5224
"unhappy.2",4,6,0.6057
"content.4",9,6,-0.5403
"excited.1",10,6,0.1887
"sluggish.2",2,8,-0.3718
"pleased.1",3,8,-0.2419
"unhappy.3",4,8,0.413
"nervous.1",5,8,0.4793
"excited.2",10,8,-0.2793
"jittery.1",8,9,-0.7866
"relaxed",1,10,-0.5809
