"","V1","V2","V3"
"relaxedlag",1,1,0.2828
"upsetlag",6,1,0.4023
"relaxedlag.1",1,2,-0.352
"sluggishlag",2,2,0.0501
"irritablelag",7,2,0.6135
"excitedlag",10,2,1.1154
"pleasedlag",3,3,-0.0371
"nervouslag",5,3,0.2625
"jitterylag",8,3,0.3718
"excitedlag.1",10,3,0.305
"unhappylag",4,4,0.1568
"nervouslag.1",5,4,0.2431
"upsetlag.1",6,4,-0.3653
"jitterylag.1",8,4,-0.5707
"relaxedlag.2",1,5,0.3887
"sluggishlag.1",2,5,0.6776
"nervouslag.2",5,5,-0.1261
"unhappylag.1",4,6,-0.4682
"upsetlag.2",6,6,0.3115
"irritablelag.1",7,6,0.3211
"irritablelag.2",7,7,-0.312
"jitterylag.2",8,8,-0.2879
"irritablelag.3",7,9,0.3721
"jitterylag.3",8,9,-0.2049
"contentlag",9,9,0.2444
"pleasedlag.1",3,10,-0.6857
"upsetlag.3",6,10,0.2845
"jitterylag.4",8,10,-0.3884
"excitedlag.2",10,10,0.8817
"content",9,1,0.4123
"relaxed",1,2,-0.3426
"irritable",7,2,1.5737
"excited",10,2,0.8131
"irritable.1",7,3,0.3484
"excited.1",10,3,1.0057
"sluggish",2,4,-0.9216
"content.1",9,4,-1.1903
"jittery",8,5,0.8265
"relaxed.1",1,6,-0.4744
"pleased",3,6,0.9075
"unhappy",4,6,1.2521
"nervous",5,6,-0.2635
"jittery.1",8,6,-0.4978
"upset",6,7,1.0795
"relaxed.2",1,8,-0.614
"pleased.1",3,8,0.579
"nervous.1",5,8,-0.653
"sluggish.1",2,9,0.2444
"pleased.2",3,9,1.0446
"unhappy.1",4,10,0.6399
