"","V1","V2","V3"
"relaxedlag",1,1,0.7072
"sluggishlag",2,1,-0.3407
"sluggishlag.1",2,2,0.1947
"unhappylag",4,2,-0.4499
"nervouslag",5,2,-0.8414
"irritablelag",7,2,0.8545
"excitedlag",10,2,0.5026
"relaxedlag.1",1,3,0.476
"sluggishlag.2",2,3,-0.4227
"pleasedlag",3,3,-0.3123
"relaxedlag.2",1,4,-0.3359
"unhappylag.1",4,4,0.2555
"nervouslag.1",5,4,0.2867
"excitedlag.1",10,4,-0.2204
"nervouslag.2",5,5,0.2624
"pleasedlag.1",3,6,-0.6185
"unhappylag.2",4,6,-0.346
"upsetlag",6,6,0.0109
"excitedlag.2",10,6,0.3132
"sluggishlag.3",2,7,-0.7734
"upsetlag.1",6,7,0.6213
"irritablelag.1",7,7,-0.5424
"excitedlag.3",10,7,-0.7655
"sluggishlag.4",2,8,0.2463
"pleasedlag.2",3,8,0.7695
"unhappylag.3",4,8,-0.6114
"nervouslag.3",5,8,0.4594
"irritablelag.2",7,8,-0.3042
"jitterylag",8,8,-0.3678
"contentlag",9,8,-0.9577
"excitedlag.4",10,8,-0.2195
"relaxedlag.3",1,9,-0.2587
"unhappylag.4",4,9,-0.4057
"nervouslag.4",5,9,0.2006
"upsetlag.2",6,9,-0.3731
"contentlag.1",9,9,-0.1741
"irritablelag.3",7,10,-0.4627
"excitedlag.5",10,10,0.1097
"irritable",7,1,-0.9574
"jittery",8,2,1.0353
"irritable.1",7,3,-0.3175
"jittery.1",8,3,0.6621
"pleased",3,4,0.2833
"nervous",5,4,-0.3849
"irritable.2",7,4,0.3039
"content",9,4,-0.4958
"sluggish",2,5,-0.616
"relaxed",1,7,0.847
"upset",6,7,0.5009
"excited",10,7,-0.3262
"sluggish.1",2,8,-0.4435
"nervous.1",5,8,0.4921
"upset.1",6,8,-0.328
"excited.1",10,8,0.1636
"relaxed.1",1,9,0.2276
"sluggish.2",2,9,-0.1424
"pleased.1",3,9,0.5249
"upset.2",6,9,0.2739
"irritable.3",7,9,-0.2584
"nervous.2",5,10,0.3733
