"","V1","V2","V3"
"relaxedlag",1,1,1.5552
"unhappylag",4,1,0.4925
"sluggishlag",2,2,-0.1481
"irritablelag",7,2,-0.547
"pleasedlag",3,3,-0.1003
"nervouslag",5,3,-0.4845
"contentlag",9,3,-0.5945
"excitedlag",10,3,0.6113
"unhappylag.1",4,4,-0.259
"contentlag.1",9,4,-0.3348
"nervouslag.1",5,5,-0.1319
"sluggishlag.1",2,6,-0.2338
"upsetlag",6,6,0.3359
"sluggishlag.2",2,7,-0.1945
"irritablelag.1",7,7,-0.4489
"pleasedlag.1",3,8,-0.274
"unhappylag.2",4,8,-0.1916
"upsetlag.1",6,8,0.4444
"jitterylag",8,8,0.1806
"relaxedlag.1",1,9,2.8732
"sluggishlag.3",2,9,1.6314
"nervouslag.2",5,9,-1.8736
"upsetlag.2",6,9,1.0861
"contentlag.2",9,9,-4.0271
"excitedlag.1",10,9,1.8083
"excitedlag.2",10,10,-0.2286
"pleased",3,1,-1.3995
"pleased.1",3,2,-0.4479
"upset",6,3,0.2808
"content",9,3,1.3134
"sluggish",2,4,0.2844
"upset.1",6,4,0.5566
"pleased.2",3,5,-0.3223
"content.1",9,6,-0.3806
"sluggish.1",2,7,-0.2339
"pleased.3",3,7,-0.1776
"unhappy",4,7,-0.2493
"jittery",8,7,0.8174
"content.2",9,7,-0.4232
"upset.2",6,8,0.4389
"relaxed",1,9,5.5607
"pleased.4",3,9,-1.45
"upset.3",6,9,2.5272
"excited",10,9,-2.2949
"pleased.5",3,10,0.7748
