"","V1","V2","V3"
"relaxedlag",1,1,-0.2351
"sluggishlag",2,2,-2.1247
"unhappylag",4,2,0.2987
"upsetlag",6,2,-2.2435
"irritablelag",7,2,3.0118
"jitterylag",8,2,0.7089
"excitedlag",10,2,0.1354
"pleasedlag",3,3,-0.2883
"nervouslag",5,3,-0.1778
"upsetlag.1",6,3,-0.1249
"relaxedlag.1",1,4,0.4416
"unhappylag.1",4,4,0.597
"irritablelag.1",7,4,-0.4652
"nervouslag.1",5,5,0.3479
"upsetlag.2",6,6,-0.1004
"unhappylag.2",4,7,-0.1488
"irritablelag.2",7,7,0.1884
"contentlag",9,7,0.1301
"jitterylag.1",8,8,-0.1474
"relaxedlag.2",1,9,-0.4071
"sluggishlag.1",2,9,0.8578
"unhappylag.3",4,9,-0.6276
"nervouslag.2",5,9,0.7458
"upsetlag.3",6,9,0.32
"jitterylag.2",8,9,-1.0003
"contentlag.1",9,9,0.8763
"sluggishlag.2",2,10,-0.2483
"excitedlag.1",10,10,-0.1507
"unhappy",4,1,-0.3183
"jittery",8,1,-0.3298
"excited",10,1,0.3249
"relaxed",1,2,0.2852
"nervous",5,2,-1.093
"jittery.1",8,2,1.4598
"excited.1",10,2,0.2868
"unhappy.1",4,3,0.3055
"jittery.2",8,3,-0.295
"content",9,3,0.9221
"sluggish",2,4,0.9811
"irritable",7,4,-0.5071
"unhappy.2",4,6,0.7273
"sluggish.1",2,7,0.4199
"upset",6,7,0.8143
"relaxed.1",1,8,-0.1402
"sluggish.2",2,8,0.1225
"nervous.1",5,8,0.8486
"upset.1",6,8,-0.148
"excited.2",10,8,-0.1816
"upset.2",6,9,0.6852
"irritable.1",7,9,-1.0318
"pleased",3,10,0.6857
