"","V1","V2","V3"
"relaxedlag",1,1,0.2003
"sluggishlag",2,2,0.0266
"upsetlag",6,2,0.8177
"jitterylag",8,2,-0.4603
"pleasedlag",3,3,0.3939
"sluggishlag.1",2,4,-0.2167
"unhappylag",4,4,-0.0276
"nervouslag",5,4,0.3401
"nervouslag.1",5,5,-0.3059
"upsetlag.1",6,6,0.1605
"unhappylag.1",4,7,-0.2864
"irritablelag",7,7,0.1814
"excitedlag",10,7,0.2915
"jitterylag.1",8,8,0.2956
"pleasedlag.1",3,9,0.5835
"contentlag",9,9,-0.3727
"excitedlag.1",10,10,-0.114
"irritable",7,1,-0.766
"pleased",3,4,-0.3038
"jittery",8,4,0.2779
"content",9,4,-0.3929
"upset",6,5,0.4938
"jittery.1",8,5,0.4066
"pleased.1",3,6,-0.784
"upset.1",6,7,0.8875
"irritable.1",7,8,0.6651
"pleased.2",3,9,0.4271
"upset.2",6,9,-0.3419
