"","V1","V2","V3"
"relaxedlag",1,1,0.084
"unhappylag",4,1,0.5786
"nervouslag",5,1,-0.3764
"sluggishlag",2,2,0.471
"relaxedlag.1",1,3,-0.4162
"sluggishlag.1",2,3,-0.4103
"pleasedlag",3,3,0.0214
"unhappylag.1",4,4,0.4276
"contentlag",9,4,0.4912
"nervouslag.1",5,5,-0.5601
"jitterylag",8,5,0.7533
"upsetlag",6,6,0.1696
"sluggishlag.2",2,7,0.2165
"pleasedlag.1",3,7,-0.1583
"unhappylag.2",4,7,0.2211
"irritablelag",7,7,0.2165
"jitterylag.1",8,7,0.1674
"excitedlag",10,7,0.5214
"nervouslag.2",5,8,0.5674
"jitterylag.2",8,8,-0.0199
"excitedlag.1",10,8,0.4065
"jitterylag.3",8,9,0.3248
"contentlag.1",9,9,-0.2232
"excitedlag.2",10,9,0.5425
"upsetlag.1",6,10,-0.3243
"excitedlag.3",10,10,-0.3869
"relaxed",1,3,0.5334
"nervous",5,3,0.6573
"upset",6,3,-0.4732
"jittery",8,3,0.3281
"content",9,3,0.6719
"excited",10,3,0.4571
"nervous.1",5,4,0.2705
"jittery.1",8,4,0.4042
"excited.1",10,4,-0.2439
"pleased",3,5,-0.9795
"content.1",9,6,-0.3724
"sluggish",2,7,-0.451
"unhappy",4,7,0.2343
"nervous.2",5,7,-0.2772
"upset.1",6,7,0.7399
"content.2",9,7,-0.1728
"excited.2",10,7,0.1963
"upset.2",6,8,0.5627
"sluggish.1",2,10,0.645
"content.3",9,10,0.3874
