"","V1","V2","V3"
"relaxedlag",1,1,-0.1253
"sluggishlag",2,2,0.089
"pleasedlag",3,3,0.1698
"nervouslag",5,3,0.4775
"jitterylag",8,3,-0.3968
"contentlag",9,3,0.3641
"excitedlag",10,3,-0.492
"unhappylag",4,4,-0.0435
"upsetlag",6,5,0.4262
"upsetlag.1",6,6,-0.0772
"irritablelag",7,7,-0.1002
"relaxedlag.1",1,8,0.5532
"jitterylag.1",8,8,-0.1521
"contentlag.1",9,8,-0.5348
"contentlag.2",9,9,-0.0771
"relaxedlag.2",1,10,-0.4328
"excitedlag.1",10,10,0.0223
"nervous",5,3,0.6448
"content",9,3,0.8559
"irritable",7,5,0.6233
"pleased",3,6,-0.506
"pleased.1",3,7,-0.803
"unhappy",4,7,0.3845
"excited",10,8,-0.3235
"relaxed",1,9,0.6233
"pleased.2",3,10,0.4652
