"","V1","V2","V3"
"relaxedlag",1,1,-1.0405
"pleasedlag",3,1,1.0524
"jitterylag",8,1,-0.5183
"excitedlag",10,1,-0.4243
"sluggishlag",2,2,-0.0021
"upsetlag",6,2,-0.5681
"pleasedlag.1",3,3,-0.0375
"nervouslag",5,3,-0.2406
"relaxedlag.1",1,4,0.4313
"unhappylag",4,4,0.3064
"nervouslag.1",5,5,0.0618
"irritablelag",7,5,-0.3165
"upsetlag.1",6,6,0.1102
"relaxedlag.2",1,7,-0.5614
"pleasedlag.2",3,7,-0.4391
"unhappylag.1",4,7,-0.4346
"irritablelag.1",7,7,-0.3474
"excitedlag.1",10,7,0.4832
"upsetlag.2",6,8,-0.8009
"irritablelag.2",7,8,1.032
"jitterylag.1",8,8,-0.8992
"contentlag",9,8,-0.4538
"excitedlag.2",10,8,-0.3124
"contentlag.1",9,9,0.0229
"pleasedlag.3",3,10,-0.3425
"nervouslag.2",5,10,0.282
"excitedlag.3",10,10,0.3091
"sluggish",2,1,-0.5318
"unhappy",4,1,0.3967
"nervous",5,1,-0.4005
"jittery",8,2,0.6558
"relaxed",1,3,0.3298
"unhappy.1",4,3,-0.5823
"jittery.1",8,3,0.3673
"sluggish.1",2,4,0.3047
"upset",6,4,0.5989
"jittery.2",8,5,0.5938
"relaxed.1",1,6,-0.692
"nervous.1",5,7,-0.2811
"upset.1",6,7,0.6739
"jittery.3",8,7,0.4932
"content",9,7,-0.1655
"sluggish.2",2,8,-0.5052
"unhappy.2",4,9,-0.6684
"pleased",3,10,0.8849
