"","V1","V2","V3"
"relaxedlag",1,1,0.1497
"sluggishlag",2,2,0.4271
"pleasedlag",3,3,0.1199
"jitterylag",8,3,0.412
"relaxedlag.1",1,4,0.2583
"unhappylag",4,4,0.3438
"upsetlag",6,4,0.5029
"jitterylag.1",8,4,-0.4478
"nervouslag",5,5,0.6319
"irritablelag",7,5,0.9399
"jitterylag.2",8,5,-0.9323
"upsetlag.1",6,6,-0.0412
"jitterylag.3",8,8,-0.0904
"pleasedlag.1",3,9,9.6837
"irritablelag.1",7,9,3.2441
"contentlag",9,9,-8.0521
"relaxedlag.2",1,10,-0.7115
"pleasedlag.2",3,10,0.8193
"irritablelag.2",7,10,0.2703
"excitedlag",10,10,-0.5078
"pleased",3,1,0.3218
"upset",6,2,-0.3937
"jittery",8,2,1.1241
"irritable",7,3,-0.3137
"content",9,3,0.6385
"unhappy",4,5,1.6754
"content.1",9,5,2.5677
"excited",10,5,-1.2986
"pleased.1",3,6,-0.4106
"unhappy.1",4,6,0.4849
"irritable.1",7,6,0.27
"excited.1",10,6,0.1933
"nervous",5,8,1.0461
"sluggish",2,9,-8.3512
"unhappy.2",4,9,1.8847
"nervous.1",5,9,-6.9488
"sluggish.1",2,10,-0.7722
"content.2",9,10,-0.4553
