"","V1","V2","V3"
"relaxedlag",1,1,-0.9365
"sluggishlag",2,1,0.5419
"pleasedlag",3,1,0.2304
"relaxedlag.1",1,2,0.6101
"sluggishlag.1",2,2,-0.5105
"pleasedlag.1",3,3,0.1447
"contentlag",9,3,-0.4156
"unhappylag",4,4,-0.2873
"irritablelag",7,4,-0.3454
"sluggishlag.2",2,5,0.3804
"pleasedlag.2",3,5,0.215
"nervouslag",5,5,-0.4538
"contentlag.1",9,5,0.2987
"excitedlag",10,5,-0.282
"upsetlag",6,6,-0.5073
"contentlag.2",9,6,-0.3904
"irritablelag.1",7,7,-0.1116
"pleasedlag.3",3,8,0.1597
"unhappylag.1",4,8,-0.1757
"upsetlag.1",6,8,-0.4801
"jitterylag",8,8,0.4066
"contentlag.3",9,8,-0.2829
"unhappylag.2",4,9,-0.4088
"contentlag.4",9,9,-0.0695
"upsetlag.2",6,10,0.3668
"excitedlag.1",10,10,0.1196
"sluggish",2,1,0.7637
"excited",10,1,-0.318
"pleased",3,4,-0.3963
"content",9,4,-0.3628
"pleased.1",3,5,0.7048
"jittery",8,5,0.5397
"relaxed",1,8,-0.2034
"pleased.2",3,8,-0.3292
"unhappy",4,8,-0.1621
"upset",6,8,0.3556
"irritable",7,8,-0.3681
"content.1",9,8,-0.4008
"excited.1",10,8,0.2817
"relaxed.1",1,9,0.427
"sluggish.1",2,10,-0.4318
