"","V1","V2","V3"
"relaxedlag",1,1,-0.5838
"relaxedlag.1",1,2,0.4982
"sluggishlag",2,2,-0.3382
"unhappylag",4,2,0.3802
"upsetlag",6,2,-0.5195
"relaxedlag.2",1,3,-0.4386
"pleasedlag",3,3,0.1494
"unhappylag.1",4,4,0.1058
"relaxedlag.3",1,5,1.3764
"sluggishlag.1",2,5,0.5752
"nervouslag",5,5,0.5018
"upsetlag.1",6,5,1.2622
"upsetlag.2",6,6,0.0937
"jitterylag",8,6,-0.4272
"irritablelag",7,7,-0.3449
"jitterylag.1",8,8,-0.1319
"contentlag",9,8,0.3331
"contentlag.1",9,9,-0.1429
"unhappylag.2",4,10,0.5079
"excitedlag",10,10,0.2602
"nervous",5,1,-1.3011
"jittery",8,4,0.5587
"relaxed",1,5,1.5475
"sluggish",2,5,-0.7025
"pleased",3,5,1.0196
"unhappy",4,5,1.1305
"upset",6,5,-1.0302
"irritable",7,5,2.0447
"content",9,5,0.6335
"relaxed.1",1,7,0.9857
"irritable.1",7,8,0.5756
"relaxed.2",1,10,0.4692
