"","V1","V2","V3"
"relaxedlag",1,1,-0.1189
"sluggishlag",2,2,0.4452
"pleasedlag",3,3,0.0579
"relaxedlag.1",1,4,-0.7274
"sluggishlag.1",2,4,-0.6194
"unhappylag",4,4,0.0399
"nervouslag",5,4,-0.8493
"upsetlag",6,4,0.2405
"jitterylag",8,4,0.6743
"contentlag",9,4,0.5296
"excitedlag",10,4,-0.5522
"relaxedlag.2",1,5,0.4309
"nervouslag.1",5,5,0.1736
"upsetlag.1",6,6,0.3461
"irritablelag",7,7,0.522
"jitterylag.1",8,8,0.2587
"unhappylag.1",4,9,0.2899
"contentlag.1",9,9,0.4408
"excitedlag.1",10,10,-0.1054
"content",9,1,0.6509
"irritable",7,2,-1.4876
"excited",10,2,-1.1758
"unhappy",4,3,-0.9555
"relaxed",1,4,-0.1552
"sluggish",2,4,0.3636
"pleased",3,4,0.8931
"upset",6,4,1.2261
"irritable.1",7,4,0.5479
"excited.1",10,4,0.461
"unhappy.1",4,5,0.3263
"jittery",8,5,0.7443
"excited.2",10,6,-0.5049
"sluggish.1",2,7,1.1407
"relaxed.1",1,8,-0.3917
"upset.1",6,8,0.3527
"excited.3",10,8,0.6767
"pleased.1",3,9,0.5266
"excited.4",10,9,0.2848
