"","V1","V2","V3"
"relaxedlag",1,1,-0.2153
"sluggishlag",2,2,0.7445
"jitterylag",8,2,0.3399
"pleasedlag",3,3,-0.0264
"unhappylag",4,4,0.2393
"upsetlag",6,4,-0.3538
"nervouslag",5,5,0.2649
"upsetlag.1",6,6,0.0148
"relaxedlag.1",1,7,0.1714
"sluggishlag.1",2,7,-0.3889
"nervouslag.1",5,7,0.6394
"upsetlag.2",6,7,0.261
"irritablelag",7,7,-0.6368
"jitterylag.1",8,7,-0.6106
"contentlag",9,7,-0.4057
"excitedlag",10,7,0.3775
"unhappylag.1",4,8,0.5647
"jitterylag.2",8,8,-0.175
"contentlag.1",9,9,0.0421
"pleasedlag.1",3,10,-0.4041
"irritablelag.1",7,10,-0.3674
"excitedlag.1",10,10,0.3038
"excited",10,2,-0.5218
"excited.1",10,3,0.4732
"content",9,4,-0.6235
"irritable",7,5,0.339
"jittery",8,5,0.6014
"upset",6,7,0.6216
"upset.1",6,8,0.3212
"pleased",3,9,0.5905
"irritable.1",7,9,-0.327
"nervous",5,10,0.4941
"content.1",9,10,0.4844
