"","V1","V2","V3"
"relaxedlag",1,1,0.0055
"unhappylag",4,1,0.5333
"sluggishlag",2,2,0.303
"excitedlag",10,2,0.3278
"pleasedlag",3,3,-0.302
"unhappylag.1",4,3,0.4032
"relaxedlag.1",1,4,0.5504
"unhappylag.2",4,4,0.2503
"contentlag",9,4,0.3341
"nervouslag",5,5,-0.0374
"contentlag.1",9,5,0.4908
"nervouslag.1",5,6,0.3715
"upsetlag",6,6,-0.2371
"irritablelag",7,7,0.4685
"relaxedlag.2",1,8,0.3119
"jitterylag",8,8,0.1991
"contentlag.2",9,9,0.4151
"excitedlag.1",10,10,-0.1324
"jittery",8,1,-0.4395
"upset",6,2,0.5944
"upset.1",6,4,0.3226
"irritable",7,6,0.8336
"pleased",3,8,-0.327
"nervous",5,8,0.661
"upset.2",6,8,0.302
"pleased.1",3,9,0.3907
"nervous.1",5,10,0.4233
