"","V1","V2","V3"
"relaxedlag",1,1,0.3586
"unhappylag",4,1,-0.5362
"sluggishlag",2,2,-0.1248
"irritablelag",7,2,0.395
"excitedlag",10,2,0.477
"pleasedlag",3,3,0.1946
"sluggishlag.1",2,4,0.334
"unhappylag.1",4,4,-0.0254
"nervouslag",5,5,-0.1037
"sluggishlag.2",2,6,0.2377
"pleasedlag.1",3,6,-0.5633
"unhappylag.2",4,6,1.0591
"upsetlag",6,6,0.9002
"irritablelag.1",7,6,-0.5192
"jitterylag",8,6,-1.0554
"contentlag",9,6,0.5051
"excitedlag.1",10,6,0.1123
"unhappylag.3",4,7,0.4094
"irritablelag.2",7,7,0.2354
"excitedlag.2",10,7,0.2345
"unhappylag.4",4,8,0.5374
"jitterylag.1",8,8,-0.3714
"relaxedlag.1",1,9,0.6033
"pleasedlag.2",3,9,-0.4922
"nervouslag.1",5,9,-0.962
"contentlag.1",9,9,-0.6876
"irritablelag.3",7,10,0.3831
"contentlag.2",9,10,0.4161
"excitedlag.3",10,10,0.1945
"nervous",5,1,-1.4385
"upset",6,1,2.0903
"content",9,3,0.4462
"sluggish",2,4,0.519
"content.1",9,4,-0.8823
"jittery",8,5,0.8185
"relaxed",1,6,-0.719
"sluggish.1",2,6,0.4196
"pleased",3,6,0.3079
"unhappy",4,6,-0.2068
"nervous.1",5,6,0.3528
"content.2",9,6,-0.4501
"nervous.2",5,7,0.2893
"content.3",9,8,-0.5033
"excited",10,8,0.2584
"unhappy.1",4,9,0.6936
"jittery.1",8,9,-0.4365
"excited.1",10,9,0.3137
