"","V1","V2","V3"
"relaxedlag",1,1,0.1454
"sluggishlag",2,2,0.0846
"pleasedlag",3,3,0.051
"unhappylag",4,3,-0.2608
"jitterylag",8,3,-0.3059
"unhappylag.1",4,4,-0.4543
"nervouslag",5,4,0.4485
"excitedlag",10,4,0.2173
"nervouslag.1",5,5,-0.0332
"unhappylag.2",4,6,0.9871
"upsetlag",6,6,-0.8828
"excitedlag.1",10,6,-0.3599
"irritablelag",7,7,0.2828
"contentlag",9,7,0.3444
"relaxedlag.1",1,8,-0.4826
"pleasedlag.1",3,8,0.58
"nervouslag.2",5,8,-0.5995
"upsetlag.1",6,8,0.735
"jitterylag.1",8,8,0.4969
"contentlag.1",9,8,0.5564
"excitedlag.2",10,8,0.3851
"unhappylag.3",4,9,-0.616
"contentlag.2",9,9,-0.4469
"relaxedlag.2",1,10,0.3759
"sluggishlag.1",2,10,-0.3292
"upsetlag.2",6,10,0.4212
"excitedlag.3",10,10,0.5821
"unhappy",4,1,-0.4816
"jittery",8,1,-0.4831
"relaxed",1,2,-0.7204
"unhappy.1",4,2,0.5893
"nervous",5,2,-0.6848
"sluggish",2,3,0.2377
"unhappy.2",4,3,-0.3547
"nervous.1",5,3,0.2796
"content",9,3,0.5307
"excited",10,3,0.2346
"upset",6,4,0.6702
"jittery.1",8,4,0.493
"upset.1",6,5,0.6903
"upset.2",6,7,0.8099
"sluggish.1",2,8,-0.6564
"nervous.2",5,8,0.5043
"upset.3",6,8,0.4166
"unhappy.3",4,9,-0.7356
"upset.4",6,10,-0.2923
