"","V1","V2","V3"
"relaxedlag",1,1,0.3813
"contentlag",9,1,-0.5214
"sluggishlag",2,2,0.2267
"pleasedlag",3,2,0.3175
"irritablelag",7,2,0.6505
"jitterylag",8,2,-0.6077
"excitedlag",10,2,0.2454
"pleasedlag.1",3,3,-0.2583
"unhappylag",4,4,0.06
"relaxedlag.1",1,5,0.419
"nervouslag",5,5,0.6732
"upsetlag",6,6,-0.015
"relaxedlag.2",1,7,-0.5544
"sluggishlag.1",2,7,0.1926
"pleasedlag.2",3,7,0.3782
"irritablelag.1",7,7,-0.3939
"contentlag.1",9,7,-0.3451
"excitedlag.1",10,7,-0.3903
"irritablelag.2",7,8,0.279
"jitterylag.1",8,8,-0.1618
"upsetlag.1",6,9,-0.7107
"contentlag.2",9,9,-0.3193
"sluggishlag.2",2,10,0.3345
"excitedlag.2",10,10,0.127
"jittery",8,1,-0.5945
"content",9,1,0.6363
"unhappy",4,2,0.3917
"content.1",9,2,-0.2668
"nervous",5,3,-0.4322
"jittery.1",8,3,0.3285
"content.2",9,3,0.6108
"sluggish",2,4,0.5015
"content.3",9,6,-0.7617
"relaxed",1,7,-0.3277
"unhappy.1",4,7,0.2289
"nervous.1",5,7,0.2073
"upset",6,7,0.2952
"excited",10,7,-0.1219
"nervous.2",5,8,0.3917
"upset.1",6,8,0.646
"relaxed.1",1,9,-0.6869
"sluggish.1",2,9,-0.4985
"nervous.3",5,9,-0.9096
"excited.1",10,9,0.4255
"relaxed.2",1,10,-0.8131
"pleased",3,10,0.6484
"irritable",7,10,-0.5969
