"","V1","V2","V3"
"relaxedlag",1,1,-0.6261
"sluggishlag",2,2,0.2535
"pleasedlag",3,3,0.0504
"unhappylag",4,4,0.0643
"relaxedlag.1",1,5,-0.4522
"nervouslag",5,5,-0.17
"upsetlag",6,6,0.1303
"irritablelag",7,7,0.4081
"jitterylag",8,8,0.074
"contentlag",9,9,0.0386
"excitedlag",10,10,0.2518
"irritable",7,1,-0.754
"content",9,3,0.532
"content.1",9,4,-0.5321
"jittery",8,5,0.6558
"nervous",5,6,-0.5184
"irritable.1",7,6,1.0643
"nervous.1",5,7,0.6238
"jittery.1",8,9,-0.5663
