"","V1","V2","V3"
"relaxedlag",1,1,-0.3376
"excitedlag",10,1,0.3249
"sluggishlag",2,2,0.2529
"sluggishlag.1",2,3,0.5422
"pleasedlag",3,3,0.1817
"unhappylag",4,3,-0.2205
"nervouslag",5,3,0.3676
"upsetlag",6,3,-0.5631
"jitterylag",8,3,0.5388
"excitedlag.1",10,3,0.4038
"relaxedlag.1",1,4,0.3469
"unhappylag.1",4,4,-0.3547
"excitedlag.2",10,4,-0.6515
"relaxedlag.2",1,5,0.3077
"nervouslag.1",5,5,0.2784
"sluggishlag.2",2,6,0.2453
"pleasedlag.1",3,6,1.0026
"nervouslag.2",5,6,-0.8479
"upsetlag.1",6,6,0.9347
"irritablelag",7,6,0.6227
"contentlag",9,6,-0.3278
"excitedlag.3",10,6,0.4737
"sluggishlag.3",2,7,-0.2972
"irritablelag.1",7,7,0.1284
"jitterylag.1",8,8,-0.1305
"contentlag.1",9,9,-0.2601
"jitterylag.2",8,10,0.5162
"excitedlag.4",10,10,0.2119
"content",9,1,0.4094
"upset",6,2,0.5823
"content.1",9,2,-0.4176
"irritable",7,3,-0.4547
"pleased",3,4,0.3843
"content.2",9,4,-0.4972
"upset.1",6,5,0.5065
"jittery",8,5,0.385
"relaxed",1,6,-1.0827
"sluggish",2,6,-0.4453
"unhappy",4,6,0.6585
"jittery.1",8,6,-0.5407
"pleased.1",3,7,0.438
"upset.2",6,7,0.9815
"excited",10,7,-0.3968
"irritable.1",7,8,0.8392
"pleased.2",3,9,0.5139
"excited.1",10,9,0.2628
