"","V1","V2","V3"
"relaxedlag",1,1,0.0078
"sluggishlag",2,1,0.2937
"jitterylag",8,1,-0.4036
"sluggishlag.1",2,2,0.3942
"excitedlag",10,2,0.7219
"pleasedlag",3,3,-0.3368
"unhappylag",4,4,0.166
"nervouslag",5,4,0.4839
"excitedlag.1",10,4,0.229
"nervouslag.1",5,5,0.0817
"contentlag",9,5,-0.384
"pleasedlag.1",3,6,-23.2939
"nervouslag.2",5,6,-35.1551
"upsetlag",6,6,0.8584
"pleasedlag.2",3,7,0.4414
"unhappylag.1",4,7,-0.2646
"irritablelag",7,7,0.8629
"jitterylag.1",8,7,-0.2146
"relaxedlag.1",1,8,-0.3975
"sluggishlag.2",2,8,-0.2417
"nervouslag.3",5,8,0.2848
"jitterylag.2",8,8,-0.1038
"contentlag.1",9,8,0.3402
"excitedlag.2",10,8,-0.4758
"irritablelag.1",7,9,0.4728
"contentlag.2",9,9,0.2301
"relaxedlag.2",1,10,0.194
"unhappylag.2",4,10,0.292
"contentlag.3",9,10,0.501
"excitedlag.3",10,10,-0.7261
"upset",6,1,0.3041
"jittery",8,1,-0.2949
"content",9,1,0.2133
"nervous",5,2,0.5609
"upset.1",6,2,-0.6226
"irritable",7,2,0.4564
"unhappy",4,3,-0.6136
"nervous.1",5,3,-0.6242
"relaxed",1,4,0.6782
"upset.2",6,4,1.1505
"irritable.1",7,4,-0.0196
"jittery.1",8,4,0.6439
"excited",10,4,-0.2611
"sluggish",2,5,-0.6675
"unhappy.1",4,5,0.3445
"content.1",9,5,-0.6005
"sluggish.1",2,6,16.1066
"pleased",3,6,46.9717
"excited.1",10,6,-45.4515
"jittery.2",8,7,0.2696
"content.2",9,7,-0.4864
"unhappy.2",4,8,0.1317
"nervous.2",5,8,0.4604
"upset.3",6,9,-0.3771
"relaxed.1",1,10,0.2202
"unhappy.3",4,10,0.8718
"irritable.2",7,10,-1.0291
"content.3",9,10,-0.592
