"","V1","V2","V3"
"relaxedlag",1,1,-0.1376
"contentlag",9,1,0.3483
"excitedlag",10,1,0.2683
"sluggishlag",2,2,0.2937
"relaxedlag.1",1,3,0.6391
"pleasedlag",3,3,-0.2369
"nervouslag",5,3,0.4565
"unhappylag",4,4,0.4263
"pleasedlag.1",3,5,-0.6247
"unhappylag.1",4,5,0.2083
"nervouslag.1",5,5,0.1212
"upsetlag",6,5,-0.4019
"excitedlag.1",10,5,0.3639
"upsetlag.1",6,6,-0.3514
"contentlag.1",9,6,-0.5478
"sluggishlag.1",2,7,-0.5017
"nervouslag.2",5,7,-0.6899
"irritablelag",7,7,-0.2246
"jitterylag",8,8,-0.3026
"nervouslag.3",5,9,-0.3017
"contentlag.2",9,9,-0.3475
"sluggishlag.2",2,10,-0.3161
"nervouslag.4",5,10,-0.367
"excitedlag.2",10,10,0.1171
"irritable",7,1,-0.1962
"content",9,1,0.7677
"upset",6,2,0.3253
"sluggish",2,3,-0.2453
"content.1",9,3,0.4219
"excited",10,3,0.4624
"sluggish.1",2,5,-0.3297
"unhappy",4,5,-0.3632
"upset.1",6,5,-0.1339
"jittery",8,5,1.1737
"irritable.1",7,6,0.4504
"pleased",3,7,-0.5291
"jittery.1",8,7,-0.6323
"content.2",9,7,0.5306
"relaxed",1,8,-2.6964
"nervous",5,8,-2.7863
"unhappy.1",4,9,-0.7974
"nervous.1",5,9,-0.1972
"upset.2",6,9,-0.3551
"sluggish.2",2,10,0.3503
"content.3",9,10,0.5803
