"","V1","V2","V3"
"relaxedlag",1,1,0.6289
"irritablelag",7,1,0.7723
"relaxedlag.1",1,2,1.2411
"sluggishlag",2,2,0.42
"pleasedlag",3,2,-0.8531
"unhappylag",4,2,0.6636
"pleasedlag.1",3,3,0.1089
"unhappylag.1",4,4,-0.1667
"nervouslag",5,5,0.0832
"contentlag",9,5,0.2875
"upsetlag",6,6,-0.156
"nervouslag.1",5,7,0.338
"upsetlag.1",6,7,-0.1615
"irritablelag.1",7,7,-0.0347
"contentlag.1",9,7,-0.2395
"excitedlag",10,7,0.3161
"relaxedlag.2",1,8,0.9833
"nervouslag.2",5,8,0.229
"upsetlag.2",6,8,-0.5934
"jitterylag",8,8,0.5564
"contentlag.2",9,8,-0.442
"excitedlag.1",10,8,-0.2998
"contentlag.3",9,9,-0.1468
"nervouslag.3",5,10,0.6043
"irritablelag.2",7,10,-0.4504
"excitedlag.2",10,10,-0.1065
"sluggish",2,1,-0.5757
"upset",6,2,-0.487
"content",9,2,-0.645
"relaxed",1,3,0.6931
"sluggish.1",2,3,0.3784
"excited",10,3,0.3391
"upset.1",6,4,-0.7031
"irritable",7,4,-0.7264
"jittery",8,4,0.8427
"content.1",9,4,-0.804
"irritable.1",7,5,0.8518
"excited.1",10,6,-0.6581
"relaxed.1",1,7,0.3044
"sluggish.2",2,7,0.2456
"unhappy",4,7,0.6234
"jittery.1",8,7,0.1742
"excited.2",10,7,-0.6453
"relaxed.2",1,8,-0.826
"nervous",5,8,-0.2707
"content.2",9,8,-0.3915
"pleased",3,9,0.6273
"relaxed.3",1,10,0.7031
