"","V1","V2","V3"
"relaxedlag",1,1,0.1044
"pleasedlag",3,1,0.4538
"sluggishlag",2,2,-0.532
"pleasedlag.1",3,2,-0.4821
"excitedlag",10,2,-0.5959
"relaxedlag.1",1,3,-0.4155
"pleasedlag.2",3,3,-0.187
"sluggishlag.1",2,4,0.385
"pleasedlag.3",3,4,0.3982
"unhappylag",4,4,0.7709
"excitedlag.1",10,4,0.2479
"nervouslag",5,5,-0.2866
"relaxedlag.2",1,6,0.4879
"unhappylag.1",4,6,0.9039
"upsetlag",6,6,-0.3689
"irritablelag",7,7,0.5211
"pleasedlag.4",3,8,0.6559
"upsetlag.1",6,8,0.5964
"jitterylag",8,8,0.1464
"contentlag",9,9,0.2961
"pleasedlag.5",3,10,-0.6664
"excitedlag.2",10,10,0.1186
"nervous",5,1,0.3391
"excited",10,2,-0.905
"sluggish",2,3,-1.2149
"relaxed",1,4,-0.5092
"jittery",8,4,0.2514
"nervous.1",5,6,-0.2674
"irritable",7,6,0.3957
"nervous.2",5,8,0.4552
"pleased",3,9,0.3094
"excited.1",10,9,0.4718
"relaxed.1",1,10,0.5288
"pleased.1",3,10,-1.0574
"unhappy",4,10,-1.215
