"","V1","V2","V3"
"relaxedlag",1,1,0.2033
"unhappylag",4,1,0.3697
"sluggishlag",2,2,-0.2254
"pleasedlag",3,2,-0.2839
"unhappylag.1",4,2,0.4956
"pleasedlag.1",3,3,-0.3628
"irritablelag",7,3,-0.2117
"excitedlag",10,3,0.5586
"pleasedlag.2",3,4,-0.5116
"unhappylag.2",4,4,-0.3404
"jitterylag",8,4,-0.3919
"relaxedlag.1",1,5,0.7076
"sluggishlag.1",2,5,-0.6162
"unhappylag.3",4,5,0.4095
"nervouslag",5,5,-0.22
"irritablelag.1",7,5,0.2614
"jitterylag.1",8,5,0.263
"relaxedlag.2",1,6,0.473
"upsetlag",6,6,0.1167
"relaxedlag.3",1,7,-0.3021
"sluggishlag.2",2,7,-0.4309
"irritablelag.2",7,7,0.2383
"jitterylag.2",8,8,0.3339
"contentlag",9,9,0.0467
"relaxedlag.4",1,10,-0.2637
"excitedlag.1",10,10,0.2099
"pleased",3,2,-0.6784
"upset",6,3,-0.5698
"excited",10,3,0.3393
"pleased.1",3,4,-0.3673
"sluggish",2,5,-0.7451
"unhappy",4,5,0.3708
"jittery",8,5,0.4056
"sluggish.1",2,6,-0.5016
"irritable",7,6,0.6687
"relaxed",1,9,-0.2418
"upset.1",6,9,-0.8174
"jittery.1",8,10,0.2824
"content",9,10,0.7358
