"","V1","V2","V3"
"relaxedlag",1,1,-0.2697
"contentlag",9,1,0.3439
"sluggishlag",2,2,1.0935
"pleasedlag",3,2,0.6044
"pleasedlag.1",3,3,-0.0508
"relaxedlag.1",1,4,0.8398
"unhappylag",4,4,0.5286
"nervouslag",5,4,1.3734
"jitterylag",8,4,-0.4531
"nervouslag.1",5,5,0.0811
"upsetlag",6,6,0.2516
"upsetlag.1",6,7,0.3343
"irritablelag",7,7,-0.2954
"jitterylag.1",8,8,0.0778
"relaxedlag.2",1,9,0.4957
"contentlag.1",9,9,-0.2646
"jitterylag.2",8,10,0.3355
"excitedlag",10,10,0.5397
"unhappy",4,1,0.3093
"irritable",7,1,-1.2112
"excited",10,1,-0.3998
"relaxed",1,2,0.4124
"unhappy.1",4,2,1.3052
"upset",6,2,-1.0922
"content",9,3,1.4088
"excited.1",10,3,-0.4974
"sluggish",2,4,1.1261
"jittery",8,4,-0.8542
"relaxed.1",1,5,-0.2454
"upset.1",6,5,0.6893
"relaxed.2",1,6,0.7321
"irritable.1",7,6,1.0292
"content.1",9,6,-0.6043
"pleased",3,7,-0.5662
"upset.2",6,7,0.5165
"irritable.2",7,8,0.956
"sluggish.1",2,9,-0.5136
"unhappy.2",4,9,-0.9534
"pleased.1",3,10,1.2693
"unhappy.3",4,10,0.6519
