"","V1","V2","V3"
"relaxedlag",1,1,-0.1711
"sluggishlag",2,2,0.855
"upsetlag",6,2,0.412
"contentlag",9,2,0.6511
"relaxedlag.1",1,3,-0.6038
"sluggishlag.1",2,3,-0.4117
"pleasedlag",3,3,0.093
"upsetlag.1",6,3,0.6252
"irritablelag",7,3,-0.4018
"relaxedlag.2",1,4,0.2656
"unhappylag",4,4,-0.171
"jitterylag",8,4,0.4687
"contentlag.1",9,4,-0.506
"nervouslag",5,5,-0.1907
"irritablelag.1",7,5,0.3328
"upsetlag.2",6,6,-0.547
"irritablelag.2",7,6,0.4384
"contentlag.2",9,6,-0.4524
"excitedlag",10,6,0.3961
"irritablelag.3",7,7,0.3039
"upsetlag.3",6,8,0.5618
"jitterylag.1",8,8,0.1971
"contentlag.3",9,9,-0.222
"relaxedlag.3",1,10,-0.2246
"sluggishlag.2",2,10,0.5917
"unhappylag.1",4,10,-0.7126
"upsetlag.4",6,10,0.6247
"irritablelag.4",7,10,-0.2019
"jitterylag.2",8,10,-0.1681
"contentlag.4",9,10,0.5108
"excitedlag.1",10,10,0.1942
"jittery",8,1,-0.8817
"excited",10,1,0.3743
"upset",6,3,0.3169
"jittery.1",8,3,-0.6193
"content",9,3,0.6825
"sluggish",2,4,0.5593
"jittery.2",8,4,0.2007
"relaxed",1,5,-0.4939
"sluggish.1",2,5,-0.3475
"content.1",9,6,-0.927
"excited.1",10,7,0.522
"pleased",3,8,0.3258
"sluggish.2",2,9,-0.4505
"unhappy",4,9,-0.5289
"upset.1",6,9,0.7125
"irritable",7,9,-0.6375
"relaxed.1",1,10,-0.9603
"sluggish.3",2,10,-0.4627
"pleased.1",3,10,0.7744
"unhappy.1",4,10,0.4401
"irritable.1",7,10,-0.4967
