"","V1","V2","V3"
"relaxedlag",1,1,-0.3067
"upsetlag",6,1,-0.3236
"jitterylag",8,1,-0.3947
"sluggishlag",2,2,0.5121
"pleasedlag",3,2,0.732
"upsetlag.1",6,2,0.4586
"pleasedlag.1",3,3,0.1248
"unhappylag",4,3,-0.7709
"nervouslag",5,3,0.2912
"irritablelag",7,3,0.2389
"unhappylag.1",4,4,-0.3148
"jitterylag.1",8,4,0.3224
"nervouslag.1",5,5,-0.2101
"upsetlag.2",6,6,0.0828
"irritablelag.1",7,7,0.1437
"jitterylag.2",8,8,-0.3536
"sluggishlag.1",2,9,0.144
"pleasedlag.2",3,9,1.1102
"nervouslag.2",5,9,0.1065
"jitterylag.3",8,9,-0.2161
"contentlag",9,9,-1.2317
"excitedlag",10,9,-0.1038
"excitedlag.1",10,10,-0.1017
"content",9,1,0.5778
"excited",10,2,-0.4698
"relaxed",1,3,-0.2098
"sluggish",2,3,-0.4621
"unhappy",4,3,-0.623
"nervous",5,3,0.104
"upset",6,3,0.6278
"irritable",7,3,-0.215
"jittery",8,3,-0.5653
"content.1",9,3,0.2957
"upset.1",6,4,1.3156
"content.2",9,4,0.7087
"sluggish.1",2,7,-0.4275
"nervous.1",5,7,-0.2275
"upset.2",6,7,0.6565
"excited.1",10,7,-0.4462
"unhappy.1",4,8,0.6128
"relaxed.1",1,9,-0.1158
"sluggish.2",2,9,-0.6921
"pleased",3,9,0.7909
"unhappy.2",4,9,-0.5162
"nervous.2",5,9,0.1951
"upset.3",6,9,0.2836
"irritable.1",7,9,-0.4531
"excited.2",10,9,-0.7206
"content.3",9,10,0.5935
