"","V1","V2","V3"
"relaxedlag",1,1,0.446
"sluggishlag",2,1,-0.7391
"irritablelag",7,1,0.5863
"sluggishlag.1",2,2,-0.3406
"relaxedlag.1",1,3,-0.6516
"sluggishlag.2",2,3,0.26
"pleasedlag",3,3,-0.5991
"unhappylag",4,3,-0.3491
"nervouslag",5,3,0.6422
"jitterylag",8,3,-1.2461
"contentlag",9,3,0.5512
"unhappylag.1",4,4,0.0928
"sluggishlag.3",2,5,0.223
"pleasedlag.1",3,5,-0.2787
"unhappylag.2",4,5,-0.769
"nervouslag.1",5,5,0.7122
"upsetlag",6,5,0.9625
"jitterylag.1",8,5,-0.7737
"pleasedlag.2",3,6,0.2841
"unhappylag.3",4,6,0.4475
"upsetlag.1",6,6,-0.0763
"unhappylag.4",4,7,0.3711
"irritablelag.1",7,7,-0.4317
"sluggishlag.4",2,8,-0.395
"jitterylag.2",8,8,0.2149
"relaxedlag.2",1,9,1.4903
"unhappylag.5",4,9,0.8847
"upsetlag.2",6,9,0.9041
"contentlag.1",9,9,0.96
"sluggishlag.5",2,10,-0.3997
"excitedlag",10,10,0.0371
"upset",6,1,0.44
"jittery",8,1,-1.1665
"excited",10,1,-0.6186
"pleased",3,2,-0.3893
"nervous",5,2,-0.4871
"content",9,2,-0.9156
"sluggish",2,3,0.4414
"upset.1",6,3,0.3637
"content.1",9,3,1.2243
"excited.1",10,3,0.1743
"content.2",9,4,-0.582
"sluggish.1",2,5,0.6063
"jittery.1",8,5,0.9595
"content.3",9,5,0.2465
"excited.2",10,5,0.3453
"relaxed",1,6,-0.9844
"upset.2",6,7,0.4239
"content.4",9,7,-0.5088
"pleased.1",3,8,-0.454
"content.5",9,8,-0.8415
"unhappy",4,9,-1.3696
"nervous.1",5,9,1.1764
"upset.3",6,9,0.7463
