"","V1","V2","V3"
"relaxedlag",1,1,-0.0487
"nervouslag",5,1,-0.3618
"relaxedlag.1",1,2,0.5045
"sluggishlag",2,2,-0.0411
"nervouslag.1",5,2,0.5857
"upsetlag",6,2,-0.4203
"pleasedlag",3,3,0.4938
"sluggishlag.1",2,4,0.7826
"unhappylag",4,4,0.2868
"unhappylag.1",4,5,0.2833
"nervouslag.2",5,5,-0.6381
"upsetlag.1",6,5,-0.1925
"contentlag",9,5,0.2111
"relaxedlag.2",1,6,-1.2274
"pleasedlag.1",3,6,3.2574
"nervouslag.3",5,6,-0.8789
"upsetlag.2",6,6,0.2323
"jitterylag",8,6,1.4226
"excitedlag",10,6,-1.1969
"relaxedlag.3",1,7,0.3463
"sluggishlag.2",2,7,0.4866
"irritablelag",7,7,0.2802
"jitterylag.1",8,7,0.6995
"contentlag.1",9,7,-0.8118
"jitterylag.2",8,8,-0.1341
"contentlag.2",9,9,-0.0661
"sluggishlag.3",2,10,-0.6676
"excitedlag.1",10,10,0.3555
"content",9,1,0.7156
"upset",6,2,-0.9435
"relaxed",1,3,0.4173
"excited",10,3,0.5507
"sluggish",2,4,-0.542
"pleased",3,4,0.3321
"upset.1",6,4,-0.4316
"relaxed.1",1,5,-0.348
"pleased.1",3,5,0.2509
"jittery",8,5,0.7349
"excited.1",10,5,0.3491
"relaxed.2",1,6,0.9561
"sluggish.1",2,6,1.419
"pleased.2",3,6,-1.1639
"unhappy",4,6,0.9837
"irritable",7,6,-1.441
"jittery.1",8,6,0.7454
"excited.2",10,6,0.7194
"relaxed.3",1,7,0.8668
"nervous",5,7,1.7383
"upset.2",6,7,0.2743
"content.1",9,7,0.2934
"relaxed.4",1,8,-0.5422
"upset.3",6,8,0.4462
"excited.3",10,8,0.5332
"unhappy.1",4,9,-0.5318
"sluggish.2",2,10,-1.1003
"irritable.1",7,10,-1.0915
