"","V1","V2","V3"
"relaxedlag",1,1,-0.3952
"sluggishlag",2,2,0.6014
"irritablelag",7,2,0.4554
"relaxedlag.1",1,3,-0.3749
"pleasedlag",3,3,-0.2272
"unhappylag",4,4,-0.0435
"relaxedlag.2",1,5,-0.3515
"nervouslag",5,5,0.2782
"upsetlag",6,6,0.1404
"irritablelag.1",7,6,0.3485
"unhappylag.1",4,7,-0.255
"irritablelag.2",7,7,0.0435
"jitterylag",8,8,0.0934
"contentlag",9,8,0.4194
"irritablelag.3",7,9,0.4381
"contentlag.1",9,9,0.2646
"sluggishlag.1",2,10,0.5076
"nervouslag.1",5,10,-0.4129
"jitterylag.1",8,10,0.3082
"excitedlag",10,10,-0.275
"unhappy",4,1,0.3312
"upset",6,1,0.4636
"excited",10,6,-0.5563
"sluggish",2,7,-0.3445
"excited.1",10,7,-0.5603
"relaxed",1,8,-0.4863
"nervous",5,8,0.5018
"content",9,8,-0.4891
"upset.1",6,9,-0.6706
"pleased",3,10,0.4246
