"","V1","V2","V3"
"relaxedlag",1,1,-0.1454
"sluggishlag",2,1,-0.4654
"sluggishlag.1",2,2,-0.1553
"relaxedlag.1",1,3,0.427
"pleasedlag",3,3,0.3916
"contentlag",9,3,-0.3274
"unhappylag",4,4,-0.5178
"contentlag.1",9,4,-0.6769
"relaxedlag.2",1,5,0.1035
"sluggishlag.2",2,5,-0.094
"unhappylag.1",4,5,-0.0856
"nervouslag",5,5,-0.6634
"irritablelag",7,5,0.7644
"nervouslag.1",5,6,-0.562
"upsetlag",6,6,0.3306
"jitterylag",8,6,0.1993
"contentlag.2",9,6,0.236
"excitedlag",10,6,-0.5038
"irritablelag.1",7,7,0.4551
"excitedlag.1",10,7,0.6134
"sluggishlag.3",2,8,-0.3152
"upsetlag.1",6,8,-0.2182
"jitterylag.1",8,8,0.6286
"contentlag.3",9,8,-0.1915
"pleasedlag.1",3,9,-0.382
"jitterylag.2",8,9,0.4615
"contentlag.4",9,9,-0.0955
"excitedlag.2",10,9,0.5196
"excitedlag.3",10,10,0.3602
"pleased",3,1,0.3683
"nervous",5,2,0.745
"upset",6,2,-0.8866
"irritable",7,2,0.2835
"excited",10,2,-0.47
"excited.1",10,3,0.6837
"nervous.1",5,4,-0.9292
"irritable.1",7,4,1.655
"upset.1",6,5,-0.1903
"irritable.2",7,5,0.9177
"jittery",8,5,0.2214
"excited.2",10,5,0.1737
"sluggish",2,6,0.4579
"pleased.1",3,6,-0.1593
"irritable.3",7,6,0.8023
"content",9,6,0.5667
"unhappy",4,7,-0.5619
"pleased.2",3,8,0.4386
"nervous.2",5,8,0.7346
"relaxed",1,9,0.2199
"sluggish.1",2,9,-0.0941
"pleased.3",3,9,0.5894
"unhappy.1",4,9,-0.4887
"jittery.1",8,10,-0.7399
