"","V1","V2","V3"
"relaxedlag",1,1,-0.4846
"sluggishlag",2,2,0.303
"unhappylag",4,2,-0.4952
"upsetlag",6,2,-0.5317
"irritablelag",7,2,0.5552
"pleasedlag",3,3,-0.2875
"unhappylag.1",4,3,0.417
"unhappylag.2",4,4,-0.3784
"upsetlag.1",6,4,0.5291
"irritablelag.1",7,4,-0.3
"contentlag",9,4,-0.3481
"pleasedlag.1",3,5,-0.7268
"nervouslag",5,5,-0.5057
"nervouslag.1",5,6,-0.3926
"upsetlag.2",6,6,0.3855
"sluggishlag.1",2,7,-0.487
"pleasedlag.2",3,7,-1.6139
"irritablelag.2",7,7,-0.5163
"contentlag.1",9,7,0.5528
"jitterylag",8,8,-0.3973
"sluggishlag.2",2,9,-0.3168
"contentlag.2",9,9,0.0118
"excitedlag",10,10,-0.315
"irritable",7,1,-1.1211
"content",9,1,-0.9549
"excited",10,1,0.8444
"unhappy",4,2,0.6414
"unhappy.1",4,3,-0.4419
"nervous",5,3,-0.9608
"jittery",8,3,0.6612
"excited.1",10,3,0.4666
"pleased",3,4,-0.2824
"irritable.1",7,4,-0.8515
"jittery.1",8,4,1.1254
"jittery.2",8,5,1.1081
"excited.2",10,5,0.2108
"sluggish",2,7,-0.3836
"unhappy.2",4,7,0.7963
"nervous.1",5,7,-0.8821
"upset",6,7,1.4398
"excited.3",10,7,0.9984
"relaxed",1,8,-2.7112
"unhappy.3",4,8,-1.5216
"content.1",9,8,1.1733
"pleased.1",3,9,1.1
"nervous.2",5,10,-0.7409
