"","V1","V2","V3"
"relaxedlag",1,1,0.2686
"pleasedlag",3,1,0.2479
"sluggishlag",2,2,-0.1083
"relaxedlag.1",1,3,-0.3816
"pleasedlag.1",3,3,0.2445
"upsetlag",6,3,0.5332
"relaxedlag.2",1,4,0.3651
"unhappylag",4,4,0.181
"relaxedlag.3",1,5,-0.2398
"pleasedlag.2",3,5,0.3089
"nervouslag",5,5,0.3026
"irritablelag",7,5,-0.084
"jitterylag",8,5,-0.1974
"contentlag",9,5,-0.306
"excitedlag",10,5,-0.2995
"upsetlag.1",6,6,0.0472
"irritablelag.1",7,7,-0.1818
"jitterylag.1",8,8,0.3572
"excitedlag.1",10,8,-0.3043
"contentlag.1",9,9,0.211
"excitedlag.2",10,10,0.1171
"sluggish",2,1,0.2672
"content",9,1,0.6369
"sluggish.1",2,3,-0.3144
"irritable",7,3,0.3216
"jittery",8,3,-0.2951
"content.1",9,3,0.5492
"nervous",5,4,0.9323
"sluggish.2",2,5,0.1802
"pleased",3,5,0.1578
"jittery.1",8,5,0.579
"content.2",9,5,-0.2687
"relaxed",1,8,-0.5298
