"","V1","V2","V3"
"relaxedlag",1,1,-0.4195
"upsetlag",6,1,-0.6433
"jitterylag",8,1,-0.4483
"sluggishlag",2,2,0.1338
"sluggishlag.1",2,3,-0.2372
"pleasedlag",3,3,-0.0844
"contentlag",9,3,-0.5196
"unhappylag",4,4,0.2736
"nervouslag",5,4,0.2837
"excitedlag",10,4,-0.5073
"nervouslag.1",5,5,-0.249
"relaxedlag.1",1,6,-0.7356
"nervouslag.2",5,6,-0.6974
"upsetlag.1",6,6,0.1751
"jitterylag.1",8,6,0.233
"excitedlag.1",10,6,-0.2017
"irritablelag",7,7,0.4034
"pleasedlag.1",3,8,1.3735
"unhappylag.1",4,8,1.1206
"irritablelag.1",7,8,0.33
"jitterylag.2",8,8,0.0207
"contentlag.1",9,8,0.6403
"sluggishlag.2",2,9,-0.5138
"unhappylag.2",4,9,0.8287
"nervouslag.3",5,9,-0.678
"jitterylag.3",8,9,1.0977
"contentlag.2",9,9,-0.3589
"sluggishlag.3",2,10,0.297
"contentlag.3",9,10,0.4928
"excitedlag.2",10,10,-0.5161
"pleased",3,1,0.4506
"content",9,2,-0.9305
"unhappy",4,3,-0.2615
"content.1",9,3,0.4326
"relaxed",1,4,0.7205
"irritable",7,4,1.2778
"irritable.1",7,5,0.6111
"jittery",8,5,0.9613
"pleased.1",3,6,-0.6108
"irritable.2",7,6,0.2331
"jittery.1",8,6,0.3195
"excited",10,6,-0.0446
"pleased.2",3,7,-1.0269
"unhappy.1",4,7,-1.3348
"relaxed.1",1,8,-1.5209
"sluggish",2,8,0.862
"pleased.3",3,8,1.0262
"nervous",5,8,-1.4703
"content.2",9,8,-0.5022
"sluggish.1",2,9,0.8484
"relaxed.2",1,10,-0.3517
"sluggish.2",2,10,-0.3012
