"","V1","V2","V3"
"relaxedlag",1,1,-0.2667
"sluggishlag",2,1,0.2311
"pleasedlag",3,1,-0.4083
"upsetlag",6,1,-0.3163
"irritablelag",7,1,-0.1948
"jitterylag",8,1,0.2
"contentlag",9,1,0.7012
"sluggishlag.1",2,2,0.2134
"contentlag.1",9,2,0.5822
"relaxedlag.1",1,3,0.3769
"pleasedlag.1",3,3,0.212
"nervouslag",5,3,0.4689
"unhappylag",4,4,0.5837
"nervouslag.1",5,4,-0.5419
"nervouslag.2",5,5,0.4708
"jitterylag.1",8,5,-0.7209
"excitedlag",10,5,0.4573
"sluggishlag.2",2,6,-0.255
"upsetlag.1",6,6,0.026
"irritablelag.1",7,7,0.1766
"relaxedlag.2",1,8,0.6069
"pleasedlag.2",3,8,0.3893
"unhappylag.1",4,8,0.322
"upsetlag.2",6,8,0.6931
"irritablelag.2",7,8,-0.4763
"jitterylag.2",8,8,0.3507
"contentlag.2",9,8,0.4225
"upsetlag.3",6,9,0.2662
"contentlag.3",9,9,0.2755
"excitedlag.1",10,10,-0.5234
"sluggish",2,1,0.1959
"pleased",3,1,0.491
"unhappy",4,1,-0.7428
"irritable",7,1,0.3126
"sluggish.1",2,3,-0.699
"pleased.1",3,4,-0.8137
"irritable.1",7,4,-0.4772
"jittery",8,4,-0.4748
"relaxed",1,5,-0.7942
"sluggish.2",2,5,-0.3421
"sluggish.3",2,6,0.4622
"nervous",5,6,0.4335
"content",9,6,-0.9356
"excited",10,6,0.6714
"upset",6,7,0.9771
"sluggish.4",2,8,-0.8108
"nervous.1",5,8,0.3623
"upset.1",6,8,0.2444
"irritable.2",7,8,0.2414
"content.1",9,8,-0.5704
"unhappy.1",4,9,-0.8542
"pleased.2",3,10,0.5209
"nervous.2",5,10,0.5799
"irritable.3",7,10,-0.3716
