"","V1","V2","V3"
"relaxedlag",1,1,-0.1432
"sluggishlag",2,2,0.3232
"contentlag",9,2,0.3499
"sluggishlag.1",2,3,-0.4992
"pleasedlag",3,3,-0.3009
"contentlag.1",9,3,0.2631
"unhappylag",4,4,-0.2407
"pleasedlag.1",3,5,-0.3108
"unhappylag.1",4,5,0.5644
"nervouslag",5,5,-0.347
"contentlag.2",9,5,0.5909
"excitedlag",10,5,0.557
"relaxedlag.1",1,6,-0.2871
"sluggishlag.2",2,6,0.5021
"upsetlag",6,6,-0.8972
"irritablelag",7,6,0.377
"jitterylag",8,6,0.163
"contentlag.3",9,6,-0.4624
"irritablelag.1",7,7,0.5858
"relaxedlag.2",1,8,0.3204
"jitterylag.1",8,8,0.5417
"excitedlag.1",10,8,0.4676
"relaxedlag.3",1,9,0.2437
"nervouslag.1",5,9,0.5145
"contentlag.4",9,9,-1.0971
"nervouslag.2",5,10,-0.2897
"excitedlag.2",10,10,-0.0308
"jittery",8,1,-0.4667
"unhappy",4,2,0.6413
"upset",6,2,-1.1802
"irritable",7,2,0.7579
"nervous",5,3,-0.6405
"irritable.1",7,3,0.5066
"nervous.1",5,4,0.6628
"irritable.2",7,4,-0.7624
"content",9,4,-0.8587
"sluggish",2,5,-0.408
"jittery.1",8,5,0.484
"sluggish.1",2,6,0.7587
"pleased",3,6,0.3033
"unhappy.1",4,6,0.3968
"nervous.2",5,6,0.0814
"jittery.2",8,6,0.6609
"content.1",9,6,0.1538
"excited",10,6,0.3509
"unhappy.2",4,7,1.1815
"relaxed",1,9,-0.2841
"sluggish.2",2,9,0.6133
"pleased.1",3,9,0.7328
"nervous.3",5,9,0.4213
"excited.1",10,9,-0.186
"relaxed.1",1,10,-0.3837
"pleased.2",3,10,0.3246
