"","V1","V2","V3"
"relaxedlag",1,1,-0.4821
"unhappylag",4,1,-0.3188
"pleasedlag",3,3,1.1047
"nervouslag",5,3,1.8643
"upsetlag",6,3,-1.7297
"unhappylag.1",4,4,0.073
"nervouslag.1",5,5,-0.0011
"sluggishlag",2,6,-0.2395
"pleasedlag.1",3,6,-0.3642
"upsetlag.1",6,6,0.4739
"irritablelag",7,6,0.335
"jitterylag",8,6,-0.6124
"excitedlag",10,6,0.9478
"irritablelag.1",7,7,0.1591
"sluggishlag.1",2,8,-0.3505
"jitterylag.1",8,8,-0.4034
"contentlag",9,9,-0.2436
"excitedlag.1",10,10,0.301
"upset",6,1,0.4528
"excited",10,1,1.1695
"relaxed",1,3,1.0606
"unhappy",4,3,-1.5399
"upset.1",6,3,-1.371
"irritable",7,3,0.7387
"content",9,3,-2.9999
"excited.1",10,4,-0.8372
"upset.2",6,5,0.8753
"relaxed.1",1,6,-0.6689
"sluggish",2,6,-0.3648
"nervous",5,6,-0.5664
"content.1",9,6,-0.5827
"upset.3",6,7,0.7539
"pleased",3,9,1.2434
