"","V1","V2","V3"
"relaxedlag",1,1,-0.7754
"jitterylag",8,1,-0.8874
"contentlag",9,1,0.4094
"excitedlag",10,1,0.2628
"sluggishlag",2,2,0.373
"pleasedlag",3,3,0.214
"nervouslag",5,3,0.2571
"upsetlag",6,3,0.4354
"contentlag.1",9,3,0.354
"sluggishlag.1",2,4,0.6889
"unhappylag",4,4,-0.2237
"irritablelag",7,4,-0.2392
"nervouslag.1",5,5,-0.4956
"irritablelag.1",7,5,0.6797
"contentlag.2",9,5,0.4881
"upsetlag.1",6,6,0.0629
"irritablelag.2",7,7,-0.1429
"unhappylag.1",4,8,-0.5939
"upsetlag.2",6,8,0.5265
"jitterylag.1",8,8,0.228
"contentlag.3",9,8,-0.3631
"relaxedlag.1",1,9,-0.4033
"nervouslag.2",5,9,-0.4085
"contentlag.4",9,9,0.6451
"pleasedlag.1",3,10,0.5418
"jitterylag.2",8,10,-0.1581
"excitedlag.1",10,10,-0.505
"pleased",3,1,0.8258
"jittery",8,1,-0.4311
"excited",10,1,-0.8995
"nervous",5,2,0.7082
"nervous.1",5,3,0.4907
"irritable",7,3,-0.3103
"relaxed",1,4,-0.4891
"excited.1",10,4,-0.2082
"relaxed.1",1,5,-0.6486
"sluggish",2,5,-1.0009
"irritable.1",7,5,0.3271
"content",9,6,-0.3929
"unhappy",4,8,0.3792
"irritable.2",7,8,0.345
"pleased.1",3,9,0.3133
"unhappy.1",4,9,-0.5758
"irritable.3",7,9,-0.3101
"excited.2",10,9,-0.245
"relaxed.2",1,10,0.6399
"irritable.4",7,10,-0.3313
