"","V1","V2","V3"
"relaxedlag",1,1,-0.0011
"sluggishlag",2,1,0.3308
"sluggishlag.1",2,2,0.4617
"nervouslag",5,2,0.352
"irritablelag",7,2,-0.2475
"jitterylag",8,2,-0.4336
"excitedlag",10,2,0.3669
"pleasedlag",3,3,-0.1135
"unhappylag",4,3,0.8132
"contentlag",9,3,0.9587
"unhappylag.1",4,4,0.3364
"pleasedlag.1",3,5,0.2359
"nervouslag.1",5,5,-0.1921
"upsetlag",6,5,-0.4451
"jitterylag.1",8,5,0.4418
"sluggishlag.2",2,6,0.4126
"upsetlag.1",6,6,-0.331
"irritablelag.1",7,7,0.1284
"sluggishlag.3",2,8,-0.5921
"irritablelag.2",7,8,0.3989
"jitterylag.2",8,8,-0.061
"contentlag.1",9,8,0.4994
"excitedlag.1",10,8,0.3737
"contentlag.2",9,9,0.1655
"pleasedlag.2",3,10,-0.2522
"unhappylag.2",4,10,-0.5676
"irritablelag.3",7,10,-0.7218
"contentlag.3",9,10,-0.7137
"excitedlag.2",10,10,-0.4748
"unhappy",4,1,-0.3032
"jittery",8,3,-0.6681
"relaxed",1,4,-0.2987
"irritable",7,4,-0.24
"jittery.1",8,4,0.3441
"content",9,4,-0.5713
"sluggish",2,5,-0.4739
"pleased",3,5,0.3929
"unhappy.1",4,6,1.0767
"nervous",5,6,-0.5803
"upset",6,7,0.628
"nervous.1",5,8,0.3583
"excited",10,9,0.7611
"relaxed.1",1,10,0.555
"upset.1",6,10,0.4946
"content.1",9,10,-0.6616
