"","V1","V2","V3"
"relaxedlag",1,1,0.373
"upsetlag",6,1,-1.7441
"irritablelag",7,1,1.2826
"contentlag",9,1,0.6752
"sluggishlag",2,2,-0.0261
"sluggishlag.1",2,3,-0.4418
"pleasedlag",3,3,-0.1097
"upsetlag.1",6,3,0.2958
"unhappylag",4,4,0.1504
"contentlag.1",9,4,0.3042
"nervouslag",5,5,0.4562
"jitterylag",8,5,-0.3935
"excitedlag",10,5,-0.3523
"upsetlag.2",6,6,0.1909
"irritablelag.1",7,6,0.335
"relaxedlag.1",1,7,0.3781
"irritablelag.2",7,7,0.0949
"pleasedlag.1",3,8,0.6761
"unhappylag.1",4,8,-1.1329
"jitterylag.1",8,8,0.3618
"contentlag.2",9,8,-1.5317
"relaxedlag.2",1,9,-0.3425
"sluggishlag.2",2,9,-0.5005
"irritablelag.3",7,9,-0.2819
"contentlag.3",9,9,-0.3641
"sluggishlag.3",2,10,-0.4325
"pleasedlag.2",3,10,-0.6316
"jitterylag.2",8,10,-0.3218
"excitedlag.1",10,10,0.3412
"nervous",5,1,-0.8469
"jittery",8,1,1.9862
"content",9,1,1.2767
"unhappy",4,2,0.5735
"excited",10,2,-0.7803
"upset",6,3,-0.3485
"irritable",7,3,0.3813
"content.1",9,3,0.6405
"nervous.1",5,4,0.7687
"unhappy.1",4,5,0.8636
"content.2",9,5,0.9401
"irritable.1",7,6,0.4597
"relaxed",1,8,-1.5678
"unhappy.2",4,9,-1.0052
"sluggish",2,10,0.4316
"irritable.2",7,10,0.6546
"jittery.1",8,10,0.6687
"content.3",9,10,0.4518
