"","V1","V2","V3"
"relaxedlag",1,1,0.3909
"relaxedlag.1",1,2,-0.5656
"sluggishlag",2,2,0.4771
"pleasedlag",3,3,0.299
"upsetlag",6,3,-0.2472
"relaxedlag.2",1,4,0.6056
"pleasedlag.1",3,4,0.4577
"unhappylag",4,4,0.058
"nervouslag",5,4,-0.4821
"irritablelag",7,4,0.3308
"nervouslag.1",5,5,0.3573
"relaxedlag.3",1,6,0.7319
"sluggishlag.1",2,6,0.4556
"upsetlag.1",6,6,-0.1548
"jitterylag",8,6,0.5994
"irritablelag.1",7,7,-0.3127
"nervouslag.2",5,8,-0.4411
"upsetlag.2",6,8,-0.283
"jitterylag.1",8,8,0.4232
"relaxedlag.4",1,9,-0.2606
"unhappylag.1",4,9,-0.2361
"nervouslag.3",5,9,0.1952
"upsetlag.3",6,9,0.0789
"irritablelag.2",7,9,0.3265
"contentlag",9,9,-0.0375
"excitedlag",10,9,-0.3747
"irritablelag.3",7,10,0.4866
"jitterylag.2",8,10,0.5743
"excitedlag.1",10,10,-0.5184
"unhappy",4,2,-0.9289
"upset",6,3,-0.3421
"content",9,3,0.5539
"sluggish",2,4,1.5697
"irritable",7,4,0.9065
"sluggish.1",2,5,-0.3084
"irritable.1",7,5,-0.1819
"jittery",8,5,0.8886
"relaxed",1,8,-0.6564
"relaxed.1",1,9,0.5662
"sluggish.2",2,9,-0.4675
"nervous",5,9,-0.2937
"sluggish.3",2,10,-0.8493
"pleased",3,10,0.2148
"content.1",9,10,-0.8252
