"","V1","V2","V3"
"relaxedlag",1,1,-0.5019
"jitterylag",8,1,-0.6129
"relaxedlag.1",1,2,0.3519
"sluggishlag",2,2,0.3579
"pleasedlag",3,3,0.231
"unhappylag",4,3,0.5124
"nervouslag",5,3,-0.4529
"sluggishlag.1",2,4,-0.4672
"unhappylag.1",4,4,-0.0073
"contentlag",9,4,0.5277
"excitedlag",10,4,-0.6849
"pleasedlag.1",3,5,0.3641
"nervouslag.1",5,5,0.4265
"upsetlag",6,5,-0.5342
"contentlag.1",9,5,-0.5676
"upsetlag.1",6,6,-0.1858
"irritablelag",7,7,0.7917
"excitedlag.1",10,7,0.3874
"relaxedlag.2",1,8,0.2288
"unhappylag.2",4,8,0.2637
"jitterylag.1",8,8,-0.203
"excitedlag.2",10,8,0.4161
"sluggishlag.2",2,9,-0.1779
"pleasedlag.2",3,9,-0.3459
"unhappylag.3",4,9,0.4475
"irritablelag.1",7,9,-0.5007
"contentlag.2",9,9,-0.0224
"excitedlag.3",10,9,0.4766
"excitedlag.4",10,10,-0.0361
"nervous",5,1,-0.6961
"upset",6,1,0.3113
"relaxed",1,3,0.5751
"sluggish",2,3,-0.442
"upset.1",6,3,0.5371
"sluggish.1",2,4,0.2733
"nervous.1",5,4,-0.0207
"upset.2",6,4,0.9614
"jittery",8,4,0.2842
"sluggish.2",2,5,0.2806
"unhappy",4,5,-1.0137
"upset.3",6,5,0.7328
"content",9,5,-0.7242
"sluggish.3",2,6,-0.173
"unhappy.1",4,6,0.4929
"irritable",7,6,0.648
"upset.4",6,7,-0.4715
"content.1",9,7,-0.9458
"sluggish.4",2,8,-0.3626
"unhappy.2",4,8,0.6673
"nervous.2",5,8,1.2743
"upset.5",6,8,-0.9181
"irritable.1",7,8,0.3826
"excited",10,8,0.3812
"sluggish.5",2,9,0.34
"excited.1",10,9,0.8859
"pleased",3,10,0.8816
