"","V1","V2","V3"
"relaxedlag",1,1,-0.1154
"sluggishlag",2,2,-0.2161
"unhappylag",4,2,-0.2891
"upsetlag",6,2,0.2316
"irritablelag",7,2,0.8162
"excitedlag",10,2,-0.2474
"sluggishlag.1",2,3,0.5999
"pleasedlag",3,3,0.3689
"jitterylag",8,3,-0.1942
"relaxedlag.1",1,4,-0.7617
"unhappylag.1",4,4,-0.5762
"upsetlag.1",6,4,-0.8286
"irritablelag.1",7,4,0.7563
"excitedlag.1",10,4,-0.3117
"sluggishlag.2",2,5,0.4202
"nervouslag",5,5,0.3236
"irritablelag.2",7,5,-0.3931
"jitterylag.1",8,5,-0.263
"upsetlag.2",6,6,1.5844
"nervouslag.1",5,7,0.3838
"irritablelag.3",7,7,-0.1786
"relaxedlag.2",1,8,0.519
"upsetlag.3",6,8,0.5984
"jitterylag.2",8,8,0.1828
"contentlag",9,8,-0.3518
"relaxedlag.3",1,9,-0.2674
"sluggishlag.3",2,9,-0.6104
"pleasedlag.1",3,9,0.645
"nervouslag.2",5,9,0.1862
"upsetlag.4",6,9,-0.218
"irritablelag.4",7,9,-0.5064
"contentlag.1",9,9,-0.8118
"excitedlag.2",10,9,-0.2006
"pleasedlag.2",3,10,0.288
"irritablelag.5",7,10,-0.2994
"excitedlag.3",10,10,-0.3774
"sluggish",2,1,-0.3973
"upset",6,1,-0.451
"pleased",3,2,0.5969
"unhappy",4,2,1.0558
"upset.1",6,2,-0.2388
"excited",10,2,0.2784
"unhappy.1",4,3,-1.1971
"relaxed",1,4,-0.6735
"pleased.1",3,4,-0.7234
"upset.2",6,4,0.4224
"irritable",7,4,1.2009
"content",9,4,1.0556
"upset.3",6,5,0.7477
"pleased.2",3,6,4.9558
"excited.1",10,6,-1.9308
"nervous",5,7,0.7282
"relaxed.1",1,9,0.3312
"unhappy.2",4,9,-1.0656
"nervous.1",5,9,0.5885
"upset.4",6,9,0.7195
"excited.2",10,9,-0.3681
"nervous.2",5,10,0.3706
