"","V1","V2","V3"
"relaxedlag",1,1,-0.2481
"sluggishlag",2,2,0.376
"nervouslag",5,2,0.3466
"relaxedlag.1",1,3,-0.3744
"sluggishlag.1",2,3,-0.4072
"pleasedlag",3,3,-0.1139
"unhappylag",4,3,0.3585
"nervouslag.1",5,3,0.7319
"upsetlag",6,3,-0.6564
"jitterylag",8,3,-0.7553
"unhappylag.1",4,4,0.3262
"irritablelag",7,4,0.496
"contentlag",9,4,-0.3161
"nervouslag.2",5,5,0.3169
"unhappylag.2",4,6,0.5223
"upsetlag.1",6,6,-0.2537
"irritablelag.1",7,6,-0.1846
"excitedlag",10,6,0.2417
"irritablelag.2",7,7,-0.0136
"relaxedlag.2",1,8,-0.12
"sluggishlag.2",2,8,0.4752
"pleasedlag.1",3,8,0.6878
"unhappylag.3",4,8,0.3717
"nervouslag.3",5,8,-0.1491
"upsetlag.2",6,8,0.2076
"jitterylag.1",8,8,-0.4633
"contentlag.1",9,8,0.3267
"excitedlag.1",10,8,0.2701
"contentlag.2",9,9,-0.2454
"upsetlag.3",6,10,0.3036
"excitedlag.2",10,10,-0.1706
"unhappy",4,1,0.7218
"unhappy.1",4,3,-0.49
"irritable",7,3,0.4647
"upset",6,4,0.3764
"jittery",8,4,1.0873
"pleased",3,6,-0.3761
"nervous",5,6,0.5461
"pleased.1",3,7,-0.7675
"relaxed",1,8,-0.6038
"pleased.2",3,8,-0.2222
"unhappy.2",4,8,-0.3011
"nervous.1",5,8,0.2261
"content",9,8,0.4011
"excited",10,8,-0.5236
"pleased.3",3,9,0.6091
"relaxed.1",1,10,0.5709
"nervous.2",5,10,0.323
"irritable.1",7,10,0.379
