"","V1","V2","V3"
"relaxedlag",1,1,-0.2773
"relaxedlag.1",1,2,1.3507
"sluggishlag",2,2,0.2008
"pleasedlag",3,2,-1.1282
"upsetlag",6,2,1.1373
"irritablelag",7,2,-0.2831
"jitterylag",8,2,0.4346
"contentlag",9,2,-0.215
"excitedlag",10,2,0.3632
"pleasedlag.1",3,3,0.2144
"relaxedlag.2",1,4,-0.4333
"unhappylag",4,4,-0.2373
"nervouslag",5,4,-0.5871
"upsetlag.1",6,4,0.4459
"jitterylag.1",8,4,0.9044
"contentlag.1",9,4,-0.3957
"excitedlag.1",10,4,0.8779
"nervouslag.1",5,5,-0.0442
"upsetlag.2",6,6,-0.1877
"irritablelag.1",7,7,0.0099
"relaxedlag.3",1,8,0.4026
"pleasedlag.2",3,8,-0.7576
"jitterylag.2",8,8,-0.1969
"contentlag.2",9,9,0.0342
"jitterylag.3",8,10,0.4194
"excitedlag.2",10,10,-0.4083
"upset",6,1,-0.6567
"pleased",3,2,-0.3639
"unhappy",4,2,-0.9186
"upset.1",6,2,0.8951
"irritable",7,2,-0.6093
"jittery",8,2,-0.41
"content",9,2,-0.6053
"relaxed",1,3,0.7977
"jittery.1",8,3,0.5342
"nervous",5,4,-0.5923
"excited",10,4,-1.547
"pleased.1",3,5,-0.4893
"upset.2",6,5,0.5553
"upset.3",6,7,0.7817
"unhappy.1",4,8,-0.3898
"nervous.1",5,8,0.7891
"relaxed.1",1,9,0.5856
"sluggish",2,10,-1.1834
"unhappy.2",4,10,1.0023
"nervous.2",5,10,-0.192
"upset.4",6,10,-0.9112
