"","V1","V2","V3"
"relaxedlag",1,1,0.6239
"pleasedlag",3,1,-0.2759
"contentlag",9,1,-0.3836
"sluggishlag",2,2,0.4427
"unhappylag",4,2,0.471
"upsetlag",6,2,0.3203
"irritablelag",7,2,-0.2939
"pleasedlag.1",3,3,-0.2616
"unhappylag.1",4,4,0.0942
"nervouslag",5,5,0.516
"upsetlag.1",6,5,-0.4558
"upsetlag.2",6,6,-0.3113
"jitterylag",8,6,0.4981
"irritablelag.1",7,7,-0.0188
"jitterylag.1",8,8,0.2838
"relaxedlag.1",1,9,2.5847
"sluggishlag.1",2,9,-1.0962
"nervouslag.1",5,9,0.3535
"upsetlag.3",6,9,-1.6368
"irritablelag.2",7,9,1.1992
"contentlag.1",9,9,-1.1642
"excitedlag",10,9,0.5391
"pleasedlag.2",3,10,-0.3811
"irritablelag.3",7,10,-0.5329
"jitterylag.2",8,10,0.3576
"excitedlag.1",10,10,0.1346
"sluggish",2,1,0.4289
"irritable",7,1,-0.2985
"content",9,2,-0.2362
"excited",10,2,-0.4019
"content.1",9,3,0.5304
"relaxed",1,4,0.3966
"content.2",9,4,-0.917
"pleased",3,5,0.3772
"content.3",9,5,-0.7404
"upset",6,7,0.6024
"nervous",5,8,0.5134
"content.4",9,8,-0.404
"sluggish.1",2,9,0.7621
"unhappy",4,9,0.8685
"upset.1",6,9,-1.392
"jittery",8,9,1.1231
"excited.1",10,9,0.517
