"","V1","V2","V3"
"relaxedlag",1,1,0.4238
"upsetlag",6,1,0.3299
"sluggishlag",2,2,-0.3142
"pleasedlag",3,3,0.0361
"unhappylag",4,4,0.0219
"nervouslag",5,5,0.0763
"contentlag",9,5,0.6188
"excitedlag",10,5,-0.9495
"upsetlag.1",6,6,0.157
"unhappylag.1",4,7,-0.4631
"nervouslag.1",5,7,0.3011
"irritablelag",7,7,1.3798
"excitedlag.1",10,7,0.4004
"sluggishlag.1",2,8,0.3096
"jitterylag",8,8,0.4372
"contentlag.1",9,8,0.3373
"relaxedlag.1",1,9,0.5187
"pleasedlag.1",3,9,0.73
"jitterylag.1",8,9,0.75
"contentlag.2",9,9,-0.6016
"excitedlag.2",10,10,0.6369
"jittery",8,1,-0.8118
"unhappy",4,2,0.5127
"content",9,3,0.8603
"content.1",9,4,-0.9379
"sluggish",2,5,-0.383
"irritable",7,6,0.9902
"sluggish.1",2,7,0.5342
"pleased",3,7,-1.8254
"unhappy.1",4,7,2.2439
"nervous",5,7,1.882
"upset",6,7,-1.5606
"jittery.1",8,7,-2.1021
"content.2",9,7,1.3233
"relaxed",1,8,0.7112
"sluggish.2",2,8,0.4037
"pleased.1",3,8,-1.1647
"nervous.1",5,8,0.575
"unhappy.2",4,9,0.4678
"excited",10,9,1.258
