"","V1","V2","V3"
"relaxedlag",1,1,-0.5563
"sluggishlag",2,1,-0.3833
"pleasedlag",3,1,0.6682
"unhappylag",4,1,0.5952
"jitterylag",8,1,-0.6311
"sluggishlag.1",2,2,-0.2407
"nervouslag",5,2,-0.4625
"irritablelag",7,2,0.4222
"pleasedlag.1",3,3,-0.0453
"irritablelag.1",7,3,0.2665
"unhappylag.1",4,4,0.1836
"irritablelag.2",7,4,-0.6068
"jitterylag.1",8,4,-0.3675
"contentlag",9,4,-0.6482
"relaxedlag.1",1,5,0.3237
"nervouslag.1",5,5,0.9552
"upsetlag",6,5,-0.4967
"contentlag.1",9,5,-0.6611
"excitedlag",10,5,-0.5164
"upsetlag.1",6,6,-0.1291
"irritablelag.3",7,7,0.1562
"excitedlag.1",10,7,-0.4015
"relaxedlag.2",1,8,-0.2368
"pleasedlag.2",3,8,-0.2494
"upsetlag.2",6,8,-0.4835
"irritablelag.4",7,8,0.1619
"jitterylag.2",8,8,0.3405
"sluggishlag.2",2,9,-0.5244
"pleasedlag.3",3,9,-0.6246
"nervouslag.2",5,9,-0.7273
"jitterylag.3",8,9,0.5593
"contentlag.2",9,9,0.0102
"pleasedlag.4",3,10,-0.5975
"excitedlag.2",10,10,0.3137
"unhappy",4,1,-0.7357
"irritable",7,1,0.4839
"jittery",8,1,-0.6912
"unhappy.1",4,2,0.3945
"nervous",5,2,-0.8016
"jittery.1",8,2,0.5324
"unhappy.2",4,3,-0.8736
"pleased",3,4,0.6887
"irritable.1",7,4,0.3254
"content",9,4,-0.4782
"excited",10,4,-0.9861
"relaxed",1,5,0.5317
"irritable.2",7,6,0.4692
"jittery.2",8,6,0.5357
"excited.1",10,6,-0.2365
"nervous.1",5,8,0.7475
"irritable.3",7,9,-0.6594
