"","V1","V2","V3"
"relaxedlag",1,1,-0.1184
"relaxedlag.1",1,2,-0.0501
"sluggishlag",2,2,-0.4399
"unhappylag",4,2,1.102
"nervouslag",5,2,-0.7786
"upsetlag",6,2,-0.2899
"jitterylag",8,2,0.1293
"pleasedlag",3,3,-0.0533
"relaxedlag.2",1,4,1.1237
"unhappylag.1",4,4,0.1715
"jitterylag.1",8,4,1.6205
"contentlag",9,4,0.5409
"excitedlag",10,4,-0.5823
"nervouslag.1",5,5,-0.3221
"upsetlag.1",6,6,-0.0972
"nervouslag.2",5,7,0.3328
"upsetlag.2",6,7,0.4838
"irritablelag",7,7,-0.4864
"jitterylag.2",8,8,0.4904
"contentlag.1",9,9,-0.0623
"excitedlag.1",10,10,0.3844
"pleased",3,1,0.605
"relaxed",1,2,-0.4691
"unhappy",4,2,0.6302
"upset",6,2,0.2602
"jittery",8,2,-0.6509
"excited",10,2,0.3403
"content",9,3,0.8554
"sluggish",2,4,-1.0934
"nervous",5,4,-0.7974
"content.1",9,4,-0.9232
"unhappy.1",4,5,1.0629
"excited.1",10,5,0.441
"irritable",7,6,0.5971
"relaxed.1",1,7,-0.6963
"jittery.1",8,9,-0.76
"excited.2",10,9,0.2804
