"","V1","V2","V3"
"relaxedlag",1,1,-0.0048
"sluggishlag",2,2,0.0594
"pleasedlag",3,3,0.0527
"unhappylag",4,4,0.1079
"nervouslag",5,5,0.0886
"relaxedlag.1",1,6,-0.1236
"upsetlag",6,6,0.0588
"irritablelag",7,7,0.5566
"jitterylag",8,8,-0.314
"jitterylag.1",8,9,0.3747
"contentlag",9,9,-0.1499
"excitedlag",10,10,-0.0358
"pleased",3,1,0.5775
"pleased.1",3,4,-0.5633
"relaxed",1,6,0.1384
"sluggish",2,6,-0.1642
"irritable",7,6,0.8909
"jittery",8,7,0.3934
"nervous",5,8,0.8673
"pleased.2",3,9,0.6892
"content",9,10,0.4554
