"","V1","V2","V3"
"relaxedlag",1,1,0.1148
"relaxedlag.1",1,2,-0.5674
"sluggishlag",2,2,0.4653
"unhappylag",4,2,-0.4297
"pleasedlag",3,3,-0.1406
"unhappylag.1",4,4,0.756
"jitterylag",8,4,-0.8069
"nervouslag",5,5,0.5247
"upsetlag",6,6,0.2474
"irritablelag",7,7,0.3145
"jitterylag.1",8,8,-0.0781
"sluggishlag.1",2,9,-17.0059
"contentlag",9,9,13.0839
"sluggishlag.2",2,10,-0.4185
"excitedlag",10,10,-0.3004
"content",9,1,0.5223
"content.1",9,3,0.6549
"content.2",9,4,-1.2682
"jittery",8,5,0.5619
"unhappy",4,7,0.6689
"irritable",7,8,0.6779
"unhappy.1",4,9,34.5892
"pleased",3,10,0.4392
