"","V1","V2","V3"
"relaxedlag",1,1,0.3437
"sluggishlag",2,2,-0.2234
"pleasedlag",3,3,-0.0827
"unhappylag",4,4,-0.2147
"nervouslag",5,5,-0.0229
"upsetlag",6,6,0.0157
"irritablelag",7,7,0.1785
"sluggishlag.1",2,8,0.4891
"jitterylag",8,8,-0.1264
"contentlag",9,9,0.0207
"relaxedlag.1",1,10,0.6085
"excitedlag",10,10,-0.2182
"upset",6,2,0.6237
"relaxed",1,3,0.7417
"content",9,4,-0.7199
"unhappy",4,6,0.8973
"upset.1",6,7,0.569
"upset.2",6,8,0.6665
"relaxed.1",1,9,0.7407
