"","V1","V2","V3"
"relaxedlag",1,1,0.1698
"sluggishlag",2,2,0.246
"pleasedlag",3,3,-0.0577
"irritablelag",7,3,0.2115
"sluggishlag.1",2,4,-0.4881
"unhappylag",4,4,-0.3546
"nervouslag",5,4,0.2918
"irritablelag.1",7,4,0.2045
"contentlag",9,4,-0.5906
"sluggishlag.2",2,5,0.5235
"nervouslag.1",5,5,0.2101
"upsetlag",6,6,0.0647
"contentlag.1",9,6,0.2122
"irritablelag.2",7,7,0.216
"relaxedlag.1",1,8,-0.4882
"nervouslag.2",5,8,-0.3459
"jitterylag",8,8,0.1105
"sluggishlag.3",2,9,-0.5546
"contentlag.2",9,9,0.1866
"excitedlag",10,9,-0.2517
"excitedlag.1",10,10,0.1026
"nervous",5,1,-0.516
"content",9,1,0.442
"content.1",9,3,0.7603
"nervous.1",5,4,0.1521
"irritable",7,4,0.2884
"jittery",8,4,-0.1619
"content.2",9,4,-0.8217
"unhappy",4,6,0.4261
"irritable.1",7,6,0.4578
"content.3",9,6,-0.3823
"excited",10,6,0.2893
"relaxed",1,8,-0.2463
"pleased",3,8,-0.3712
"irritable.2",7,8,0.2709
"excited.1",10,9,0.4125
"sluggish",2,10,-0.4467
