"","V1","V2","V3"
"relaxedlag",1,1,-0.2109
"sluggishlag",2,2,0.1605
"relaxedlag.1",1,3,-0.2703
"pleasedlag",3,3,0.2584
"jitterylag",8,3,-0.5643
"relaxedlag.2",1,4,-0.3681
"sluggishlag.1",2,4,0.4005
"unhappylag",4,4,0.1833
"irritablelag",7,4,-0.4577
"contentlag",9,4,-0.5017
"excitedlag",10,4,0.239
"relaxedlag.3",1,5,-0.2013
"unhappylag.1",4,5,-0.154
"nervouslag",5,5,-0.3665
"upsetlag",6,5,0.4106
"excitedlag.1",10,5,-0.122
"relaxedlag.4",1,6,0.3124
"upsetlag.1",6,6,-0.1243
"pleasedlag.1",3,7,0.3437
"nervouslag.1",5,7,0.2388
"irritablelag.1",7,7,-0.4364
"excitedlag.2",10,7,-0.3369
"jitterylag.1",8,8,0.1909
"pleasedlag.2",3,9,0.3648
"unhappylag.2",4,9,0.2318
"upsetlag.2",6,9,-0.245
"contentlag.1",9,9,-0.3912
"excitedlag.3",10,10,0.136
"nervous",5,1,-0.3982
"nervous.1",5,2,0.7051
"jittery",8,2,-1.0375
"excited",10,3,0.4458
"jittery.1",8,4,0.2832
"content",9,4,-0.4409
"unhappy",4,5,-0.2226
"jittery.2",8,5,0.77
"content.1",9,5,-0.4008
"unhappy.1",4,6,0.2008
"nervous.2",5,6,0.5155
"content.2",9,6,-0.3401
"jittery.3",8,7,0.4018
"content.3",9,7,-0.4527
"excited.1",10,7,-0.3107
"pleased",3,9,0.5964
"upset",6,9,-0.3656
