"","V1","V2","V3"
"relaxedlag",1,1,0.4182
"sluggishlag",2,2,0.4156
"sluggishlag.1",2,3,-0.2448
"pleasedlag",3,3,0.1629
"jitterylag",8,3,-0.3523
"unhappylag",4,4,-0.047
"nervouslag",5,5,-0.786
"irritablelag",7,5,0.941
"unhappylag.1",4,6,0.3383
"upsetlag",6,6,0.2429
"excitedlag",10,6,-0.5247
"irritablelag.1",7,7,0.4214
"jitterylag.1",8,8,-0.2308
"unhappylag.2",4,9,-0.3027
"nervouslag.1",5,9,-0.2445
"upsetlag.1",6,9,-0.5103
"jitterylag.2",8,9,-0.5467
"contentlag",9,9,-0.0309
"excitedlag.1",10,9,0.2495
"excitedlag.2",10,10,-0.037
"nervous",5,1,-0.7068
"sluggish",2,3,0.3496
"jittery",8,3,-0.1634
"content",9,3,0.7821
"excited",10,3,-0.2204
"pleased",3,4,-0.3464
"nervous.1",5,4,0.3365
"upset",6,4,0.4777
"relaxed",1,6,0.3697
"sluggish.1",2,6,0.2792
"irritable",7,6,0.6703
"unhappy",4,7,-0.4945
"nervous.2",5,7,0.7751
"jittery.1",8,7,0.336
"relaxed.1",1,9,0.4373
"pleased.1",3,9,-0.7013
"upset.1",6,9,-0.4959
"excited.1",10,9,-0.4135
"irritable.1",7,10,-0.3984
