"","V1","V2","V3"
"relaxedlag",1,1,-0.2179
"pleasedlag",3,1,0.6753
"sluggishlag",2,2,0.0666
"nervouslag",5,2,-0.2864
"upsetlag",6,2,-0.5762
"excitedlag",10,2,0.526
"relaxedlag.1",1,3,-0.195
"pleasedlag.1",3,3,0.1612
"upsetlag.1",6,3,-0.5407
"irritablelag",7,3,0.4177
"sluggishlag.1",2,4,-0.183
"pleasedlag.2",3,4,0.8872
"unhappylag",4,4,0.3524
"irritablelag.1",7,4,0.3851
"nervouslag.1",5,5,-0.0385
"upsetlag.2",6,6,0.3017
"unhappylag.1",4,7,-0.5896
"upsetlag.3",6,7,0.3318
"irritablelag.2",7,7,-0.4153
"contentlag",9,7,-0.393
"excitedlag.1",10,7,0.3097
"jitterylag",8,8,-0.0023
"contentlag.1",9,8,-0.2843
"relaxedlag.2",1,9,-0.288
"sluggishlag.2",2,9,0.2997
"nervouslag.2",5,9,-0.2648
"contentlag.2",9,9,0.519
"excitedlag.2",10,9,0.4747
"jitterylag.1",8,10,0.3452
"excitedlag.3",10,10,-0.3014
"irritable",7,1,-0.268
"unhappy",4,3,-0.6524
"excited",10,3,0.4157
"relaxed",1,4,-0.3411
"upset",6,4,0.2062
"content",9,4,-0.4432
"content.1",9,7,-0.7113
"unhappy.1",4,8,0.2961
"nervous",5,8,0.7704
"sluggish",2,9,-0.6353
"upset.1",6,9,-0.8549
"jittery",8,9,0.1418
"excited.1",10,9,0.1685
"jittery.1",8,10,0.6439
