"","V1","V2","V3"
"relaxedlag",1,1,0.0085
"unhappylag",4,1,-0.2254
"jitterylag",8,1,0.2211
"contentlag",9,1,-0.5199
"sluggishlag",2,2,0.3503
"pleasedlag",3,2,0.4085
"jitterylag.1",8,2,0.3527
"relaxedlag.1",1,3,0.1895
"pleasedlag.1",3,3,0.146
"nervouslag",5,3,0.3283
"upsetlag",6,3,0.1874
"jitterylag.2",8,3,-0.5645
"contentlag.1",9,3,-0.277
"unhappylag.1",4,4,0.3754
"contentlag.2",9,4,0.5169
"excitedlag",10,4,-0.4805
"nervouslag.1",5,5,0.1686
"nervouslag.2",5,6,0.5553
"upsetlag.1",6,6,0.1959
"jitterylag.3",8,6,-0.3194
"relaxedlag.2",1,7,0.318
"nervouslag.3",5,7,0.4987
"upsetlag.2",6,7,-0.9903
"irritablelag",7,7,0.8269
"relaxedlag.3",1,8,0.4197
"sluggishlag.1",2,8,1.5764
"unhappylag.2",4,8,-0.3319
"nervouslag.4",5,8,-2.6338
"upsetlag.3",6,8,-2.8545
"irritablelag.1",7,8,3.1901
"jitterylag.4",8,8,3.0627
"contentlag.3",9,8,0.7622
"excitedlag.1",10,8,-0.6873
"upsetlag.4",6,9,0.2794
"contentlag.4",9,9,-0.0319
"excitedlag.2",10,9,-0.2256
"sluggishlag.2",2,10,-0.3849
"excitedlag.3",10,10,0.0868
"jittery",8,1,-0.637
"content",9,3,0.8044
"sluggish",2,4,0.4586
"nervous",5,4,-0.5636
"upset",6,4,0.1989
"relaxed",1,5,0.2171
"pleased",3,5,-0.177
"upset.1",6,5,-0.3581
"irritable",7,5,0.4112
"jittery.1",8,5,0.9705
"irritable.1",7,6,0.6343
"jittery.2",8,7,0.4266
"excited",10,7,0.2704
"relaxed.1",1,8,0.6296
"sluggish.1",2,8,-1.1184
"upset.2",6,8,1.4705
"irritable.2",7,8,-2.3003
"content.1",9,8,-1.5772
"excited.1",10,8,1.5695
"unhappy",4,9,-0.6517
"upset.3",6,9,-0.5893
"pleased.1",3,10,0.5956
"jittery.3",8,10,-0.2668
