"","V1","V2","V3"
"relaxedlag",1,1,-0.3752
"pleasedlag",3,1,0.3509
"upsetlag",6,1,-0.3667
"sluggishlag",2,2,0.4007
"pleasedlag.1",3,3,-0.4154
"unhappylag",4,4,-0.0714
"relaxedlag.1",1,5,-0.2563
"unhappylag.1",4,5,0.3137
"nervouslag",5,5,0.0069
"upsetlag.1",6,6,0.211
"relaxedlag.2",1,7,0.0812
"sluggishlag.1",2,7,-0.1591
"pleasedlag.2",3,7,-0.2282
"unhappylag.2",4,7,-0.4911
"irritablelag",7,7,-0.219
"jitterylag",8,7,0.8074
"contentlag",9,7,-0.2489
"excitedlag",10,7,0.165
"relaxedlag.3",1,8,0.0608
"upsetlag.2",6,8,-0.2947
"jitterylag.1",8,8,-0.0086
"excitedlag.1",10,8,-0.1103
"unhappylag.3",4,9,-0.4264
"contentlag.1",9,9,-0.1327
"irritablelag.1",7,10,-0.4845
"excitedlag.2",10,10,0.4405
"relaxed",1,2,0.3549
"unhappy",4,3,-0.5662
"irritable",7,3,0.835
"excited",10,3,0.7882
"irritable.1",7,5,0.6808
"content",9,5,0.5163
"sluggish",2,7,-0.1384
"pleased",3,7,-0.3373
"unhappy.1",4,7,-0.8165
"upset",6,7,0.5747
"jittery",8,7,1.6987
"content.1",9,7,-0.2074
"excited.1",10,7,0.1729
"relaxed.1",1,8,-0.0843
"sluggish.1",2,8,-0.1294
"pleased.1",3,8,-0.2992
"unhappy.2",4,8,0.9722
"content.2",9,8,0.0882
"excited.2",10,8,0.1788
"nervous",5,10,0.5301
