"","V1","V2","V3"
"relaxedlag",1,1,1.5507
"contentlag",9,1,-1.486
"sluggishlag",2,2,-0.3523
"pleasedlag",3,3,-0.5177
"unhappylag",4,3,-0.3905
"excitedlag",10,3,0.2633
"unhappylag.1",4,4,0.0597
"nervouslag",5,4,0.2416
"excitedlag.1",10,4,0.3848
"nervouslag.1",5,5,0.2003
"upsetlag",6,5,-0.4251
"irritablelag",7,5,0.3401
"relaxedlag.1",1,6,-0.4897
"unhappylag.2",4,6,0.399
"upsetlag.1",6,6,0.0165
"jitterylag",8,6,-0.8822
"relaxedlag.2",1,7,0.3285
"irritablelag.1",7,7,-0.1267
"irritablelag.2",7,8,0.3426
"jitterylag.1",8,8,-0.2704
"contentlag.1",9,8,-0.3248
"contentlag.2",9,9,0.1196
"unhappylag.3",4,10,0.2795
"jitterylag.2",8,10,-0.4354
"excitedlag.2",10,10,0.4496
"pleased",3,1,-2.4269
"irritable",7,2,-0.4029
"excited",10,2,-0.5432
"relaxed",1,3,0.8348
"jittery",8,3,-0.4746
"sluggish",2,4,0.6474
"pleased.1",3,4,-0.3254
"irritable.1",7,4,-0.5871
"content",9,4,-0.6018
"relaxed.1",1,5,-1.077
"sluggish.1",2,5,0.2337
"pleased.2",3,5,0.3593
"unhappy",4,6,0.7829
"excited.1",10,6,-0.655
"pleased.3",3,7,0.4592
"upset",6,7,0.9269
"jittery.1",8,7,0.7087
"relaxed.2",1,8,-1.0106
"sluggish.2",2,8,0.4656
"relaxed.3",1,9,0.4018
"pleased.4",3,9,0.4391
