"","V1","V2","V3"
"relaxedlag",1,1,0.6833
"sluggishlag",2,2,-0.5075
"jitterylag",8,2,-0.5461
"pleasedlag",3,3,0.1352
"unhappylag",4,4,-0.2495
"nervouslag",5,4,0.3159
"contentlag",9,4,-0.3067
"nervouslag.1",5,5,-0.1036
"upsetlag",6,5,0.3874
"relaxedlag.1",1,6,-0.4241
"sluggishlag.1",2,6,1.0865
"pleasedlag.1",3,6,-0.7784
"upsetlag.1",6,6,-0.6891
"irritablelag",7,6,0.3165
"excitedlag",10,6,0.531
"sluggishlag.2",2,7,0.3126
"irritablelag.1",7,7,-0.1026
"jitterylag.1",8,7,-0.335
"excitedlag.1",10,7,-0.4987
"jitterylag.2",8,8,0.4331
"sluggishlag.3",2,9,-0.2365
"contentlag.1",9,9,0.2031
"upsetlag.2",6,10,-0.2827
"excitedlag.2",10,10,-0.066
"pleased",3,1,1.969
"nervous",5,1,2.0303
"relaxed",1,2,0.636
"unhappy",4,2,0.5156
"jittery",8,3,-0.6526
"nervous.1",5,4,0.286
"jittery.1",8,4,-0.171
"content",9,4,-0.5624
"excited",10,4,-0.1632
"relaxed.1",1,5,-1.2198
"upset",6,5,-0.5239
"sluggish",2,6,0.5414
"unhappy.1",4,6,-0.4778
"nervous.2",5,6,0.5552
"jittery.2",8,6,-0.4136
"content.1",9,6,1.0285
"excited.1",10,6,-1.5284
"relaxed.2",1,7,-0.4963
"content.2",9,7,0.5219
"excited.2",10,7,-0.8054
"pleased.1",3,9,0.5819
"excited.3",10,9,0.3006
"pleased.2",3,10,0.7956
