"","V1","V2","V3"
"relaxedlag",1,1,0.3453
"sluggishlag",2,2,0.2845
"pleasedlag",3,2,-0.3864
"pleasedlag.1",3,3,-0.049
"relaxedlag.1",1,4,0.6362
"unhappylag",4,4,-1.0596
"nervouslag",5,4,-0.8082
"jitterylag",8,4,0.6101
"contentlag",9,4,-0.8716
"relaxedlag.2",1,5,-0.4364
"nervouslag.1",5,5,-0.1815
"unhappylag.1",4,6,-1.961
"nervouslag.2",5,6,2.5876
"upsetlag",6,6,1.8404
"excitedlag",10,6,-1.8129
"unhappylag.2",4,7,0.4827
"irritablelag",7,7,-0.1182
"jitterylag.1",8,8,-0.7997
"contentlag.1",9,9,-0.0335
"relaxedlag.3",1,10,0.3314
"excitedlag.1",10,10,-0.5042
"irritable",7,2,0.3515
"jittery",8,2,-0.4675
"relaxed",1,4,-0.8204
"upset",6,4,2.1747
"unhappy",4,5,0.5779
"relaxed.1",1,6,-0.7236
"pleased",3,6,-1.2314
"jittery.1",8,6,2.5626
"content",9,6,2.896
"relaxed.2",1,8,-0.3464
"unhappy.1",4,8,0.7118
"nervous",5,8,-0.6233
"irritable.1",7,8,0.4979
"content.1",9,8,1.1121
"unhappy.2",4,9,-1.681
"sluggish",2,10,-0.3023
"content.2",9,10,0.6835
