"","V1","V2","V3"
"relaxedlag",1,1,0.0478
"sluggishlag",2,2,0.2252
"relaxedlag.1",1,3,0.2002
"sluggishlag.1",2,3,0.3651
"pleasedlag",3,3,-0.5866
"unhappylag",4,3,-0.4289
"irritablelag",7,3,-0.5834
"jitterylag",8,3,-0.3503
"contentlag",9,3,-0.3866
"unhappylag.1",4,4,0.1618
"sluggishlag.2",2,5,-0.3135
"pleasedlag.1",3,5,-0.5104
"nervouslag",5,5,0.1987
"upsetlag",6,6,-0.0093
"excitedlag",10,6,0.3699
"irritablelag.1",7,7,-0.5656
"upsetlag.1",6,8,0.4718
"jitterylag.1",8,8,0.1548
"relaxedlag.2",1,9,-0.2035
"sluggishlag.3",2,9,0.4237
"jitterylag.2",8,9,-0.4433
"contentlag.1",9,9,-0.1095
"nervouslag.1",5,10,-3.8292
"upsetlag.2",6,10,1.9292
"irritablelag.2",7,10,-1.3606
"jitterylag.3",8,10,-2.4096
"excitedlag.1",10,10,3.1276
"irritable",7,1,-0.383
"nervous",5,2,-0.4726
"unhappy",4,3,-0.814
"irritable.1",7,3,-0.3916
"jittery",8,3,-0.2127
"content",9,3,-0.274
"excited",10,3,0.8663
"pleased",3,4,-1.3731
"irritable.2",7,4,-0.7787
"unhappy.1",4,5,0.685
"irritable.3",7,5,0.3941
"irritable.4",7,6,0.8669
"excited.1",10,6,0.3921
"upset",6,7,-0.8423
"content.1",9,7,-1.4504
"unhappy.2",4,9,-0.9762
"jittery.1",8,9,-0.3572
"sluggish",2,10,-2.8964
"pleased.1",3,10,-2.1523
"nervous.1",5,10,4.0777
