"","V1","V2","V3"
"relaxedlag",1,1,0.0293
"irritablelag",7,1,0.3487
"sluggishlag",2,2,-0.0669
"unhappylag",4,2,-0.3549
"nervouslag",5,2,0.249
"excitedlag",10,2,-0.6078
"pleasedlag",3,3,-0.0026
"irritablelag.1",7,3,0.2753
"unhappylag.1",4,4,0.1861
"nervouslag.1",5,5,-0.1941
"contentlag",9,5,0.3051
"relaxedlag.1",1,6,-0.5235
"upsetlag",6,6,-0.0563
"jitterylag",8,6,-0.666
"nervouslag.2",5,7,-0.4199
"irritablelag.2",7,7,-0.2875
"excitedlag.1",10,7,-0.4385
"upsetlag.1",6,8,1.3575
"irritablelag.3",7,8,-0.9625
"jitterylag.1",8,8,0.2263
"contentlag.1",9,8,1.0807
"jitterylag.2",8,9,-0.2357
"contentlag.2",9,9,0.0345
"excitedlag.2",10,9,-0.2821
"relaxedlag.2",1,10,-0.3646
"nervouslag.3",5,10,-0.5302
"excitedlag.3",10,10,0.015
"content",9,1,0.6439
"relaxed",1,2,-0.4407
"pleased",3,2,-0.2547
"content.1",9,2,-0.3174
"excited",10,3,0.7085
"jittery",8,4,0.4457
"jittery.1",8,5,1.0588
"relaxed.1",1,6,0.3255
"sluggish",2,6,0.582
"jittery.2",8,6,0.4954
"excited.1",10,7,-0.5098
"unhappy",4,8,0.9154
"nervous",5,8,-1.9551
"irritable",7,8,1.0784
"unhappy.1",4,9,-0.6461
"content.2",9,10,0.3797
