"","V1","V2","V3"
"relaxedlag",1,1,0.1927
"pleasedlag",3,1,-0.4809
"relaxedlag.1",1,2,-0.3533
"sluggishlag",2,2,-0.3742
"jitterylag",8,2,-0.4858
"relaxedlag.2",1,3,0.6458
"sluggishlag.1",2,3,-0.3035
"pleasedlag.1",3,3,-0.8196
"unhappylag",4,3,-0.2807
"irritablelag",7,3,0.6206
"jitterylag.1",8,3,0.1287
"unhappylag.1",4,4,0.3415
"nervouslag",5,4,0.2569
"excitedlag",10,4,-0.3693
"nervouslag.1",5,5,0.2925
"sluggishlag.2",2,6,0.4707
"upsetlag",6,6,-0.584
"jitterylag.2",8,6,0.2489
"irritablelag.1",7,7,-0.2152
"jitterylag.3",8,8,0.0242
"contentlag",9,9,0.1688
"irritablelag.2",7,10,-0.4971
"excitedlag.1",10,10,-0.3122
"content",9,1,0.7356
"excited",10,2,-0.6109
"relaxed",1,3,-0.2316
"unhappy",4,3,-0.9842
"nervous",5,3,0.6988
"irritable",7,4,1.0912
"relaxed.1",1,6,-0.2477
"sluggish",2,6,0.77
"relaxed.2",1,7,-0.6379
"sluggish.1",2,7,0.9224
"pleased",3,7,1.0425
"pleased.1",3,8,-0.5414
"relaxed.3",1,10,0.5958
